<?xml version="1.0" encoding="UTF-8" standalone="no"?>
<!-- Created with Inkscape (http://www.inkscape.org/) -->

<svg
   xmlns:dc="http://purl.org/dc/elements/1.1/"
   xmlns:cc="http://creativecommons.org/ns#"
   xmlns:rdf="http://www.w3.org/1999/02/22-rdf-syntax-ns#"
   xmlns:svg="http://www.w3.org/2000/svg"
   xmlns="http://www.w3.org/2000/svg"
   xmlns:sodipodi="http://sodipodi.sourceforge.net/DTD/sodipodi-0.dtd"
   xmlns:inkscape="http://www.inkscape.org/namespaces/inkscape"
   sodipodi:docname="HUN Sárisáp Címer.svg"
   inkscape:version="0.91 r13725"
   version="1.1"
   id="svg5070"
   viewBox="0 0 601.29126 676.02051"
   height="190.78802mm"
   width="169.69775mm">
  <sodipodi:namedview
     inkscape:snap-center="true"
     inkscape:snap-object-midpoints="true"
     inkscape:snap-smooth-nodes="true"
     inkscape:object-nodes="true"
     inkscape:snap-intersection-paths="true"
     inkscape:object-paths="true"
     inkscape:snap-bbox-midpoints="true"
     inkscape:snap-bbox-edge-midpoints="true"
     inkscape:bbox-nodes="true"
     inkscape:bbox-paths="true"
     inkscape:snap-bbox="true"
     inkscape:snap-global="true"
     inkscape:guide-bbox="true"
     showguides="true"
     inkscape:window-maximized="1"
     inkscape:window-y="-8"
     inkscape:window-x="-8"
     inkscape:window-height="811"
     inkscape:window-width="1536"
     fit-margin-bottom="0"
     fit-margin-right="0"
     fit-margin-left="0"
     fit-margin-top="0"
     showborder="true"
     showgrid="false"
     inkscape:current-layer="layer3"
     inkscape:document-units="px"
     inkscape:cy="329.18838"
     inkscape:cx="560.69615"
     inkscape:zoom="0.5"
     inkscape:pageshadow="2"
     inkscape:pageopacity="0.0"
     borderopacity="1.0"
     bordercolor="#666666"
     pagecolor="#ffffff"
     id="base"
     inkscape:snap-midpoints="true"
     inkscape:snap-nodes="true" />
  <defs
     id="defs5072">
    <clipPath
       id="clipPath4594"
       clipPathUnits="userSpaceOnUse">
      <path
         sodipodi:nodetypes="cscsc"
         inkscape:connector-curvature="0"
         id="path4596"
         d="m -2500.7514,1668.6488 c 0,0.7071 -1.3612,14.4038 -0.7071,14.6725 10.9459,4.4964 48.8633,6.8943 59.7204,6.8943 10.8571,0 52.0328,-2.5844 59.7204,-6.8943 0.6168,-0.3458 -0.7071,-13.9654 -0.7071,-14.6725"
         style="color:#000000;clip-rule:nonzero;display:inline;overflow:visible;visibility:visible;opacity:1;isolation:auto;mix-blend-mode:normal;color-interpolation:sRGB;color-interpolation-filters:linearRGB;solid-color:#000000;solid-opacity:1;fill:none;fill-opacity:1;fill-rule:evenodd;stroke:#000000;stroke-width:2;stroke-linecap:butt;stroke-linejoin:miter;stroke-miterlimit:4;stroke-dasharray:none;stroke-dashoffset:0;stroke-opacity:1;color-rendering:auto;image-rendering:auto;shape-rendering:auto;text-rendering:auto;enable-background:accumulate"
         inkscape:transform-center-x="29.897231"
         inkscape:transform-center-y="-31.693926" />
    </clipPath>
    <clipPath
       id="clipPath4600"
       clipPathUnits="userSpaceOnUse">
      <path
         sodipodi:nodetypes="cscsc"
         inkscape:connector-curvature="0"
         id="path4602"
         d="m -2500.7514,1668.6488 c 0,0.7071 -1.3612,14.4038 -0.7071,14.6725 10.9459,4.4964 48.8633,6.8943 59.7204,6.8943 10.8571,0 52.0328,-2.5844 59.7204,-6.8943 0.6168,-0.3458 -0.7071,-13.9654 -0.7071,-14.6725"
         style="color:#000000;clip-rule:nonzero;display:inline;overflow:visible;visibility:visible;opacity:1;isolation:auto;mix-blend-mode:normal;color-interpolation:sRGB;color-interpolation-filters:linearRGB;solid-color:#000000;solid-opacity:1;fill:none;fill-opacity:1;fill-rule:evenodd;stroke:#000000;stroke-width:2;stroke-linecap:butt;stroke-linejoin:miter;stroke-miterlimit:4;stroke-dasharray:none;stroke-dashoffset:0;stroke-opacity:1;color-rendering:auto;image-rendering:auto;shape-rendering:auto;text-rendering:auto;enable-background:accumulate"
         inkscape:transform-center-x="29.897231"
         inkscape:transform-center-y="-31.693926" />
    </clipPath>
    <clipPath
       clipPathUnits="userSpaceOnUse"
       id="clipPath4594-4">
      <path
         inkscape:transform-center-y="-31.693926"
         inkscape:transform-center-x="29.897231"
         style="color:#000000;clip-rule:nonzero;display:inline;overflow:visible;visibility:visible;opacity:1;isolation:auto;mix-blend-mode:normal;color-interpolation:sRGB;color-interpolation-filters:linearRGB;solid-color:#000000;solid-opacity:1;fill:none;fill-opacity:1;fill-rule:evenodd;stroke:#000000;stroke-width:2;stroke-linecap:butt;stroke-linejoin:miter;stroke-miterlimit:4;stroke-dasharray:none;stroke-dashoffset:0;stroke-opacity:1;color-rendering:auto;image-rendering:auto;shape-rendering:auto;text-rendering:auto;enable-background:accumulate"
         d="m -2500.7514,1668.6488 c 0,0.7071 -1.3612,14.4038 -0.7071,14.6725 10.9459,4.4964 48.8633,6.8943 59.7204,6.8943 10.8571,0 52.0328,-2.5844 59.7204,-6.8943 0.6168,-0.3458 -0.7071,-13.9654 -0.7071,-14.6725"
         id="path4596-2"
         inkscape:connector-curvature="0"
         sodipodi:nodetypes="cscsc" />
    </clipPath>
    <clipPath
       clipPathUnits="userSpaceOnUse"
       id="clipPath4600-8">
      <path
         inkscape:transform-center-y="-31.693926"
         inkscape:transform-center-x="29.897231"
         style="color:#000000;clip-rule:nonzero;display:inline;overflow:visible;visibility:visible;opacity:1;isolation:auto;mix-blend-mode:normal;color-interpolation:sRGB;color-interpolation-filters:linearRGB;solid-color:#000000;solid-opacity:1;fill:none;fill-opacity:1;fill-rule:evenodd;stroke:#000000;stroke-width:2;stroke-linecap:butt;stroke-linejoin:miter;stroke-miterlimit:4;stroke-dasharray:none;stroke-dashoffset:0;stroke-opacity:1;color-rendering:auto;image-rendering:auto;shape-rendering:auto;text-rendering:auto;enable-background:accumulate"
         d="m -2500.7514,1668.6488 c 0,0.7071 -1.3612,14.4038 -0.7071,14.6725 10.9459,4.4964 48.8633,6.8943 59.7204,6.8943 10.8571,0 52.0328,-2.5844 59.7204,-6.8943 0.6168,-0.3458 -0.7071,-13.9654 -0.7071,-14.6725"
         id="path4602-3"
         inkscape:connector-curvature="0"
         sodipodi:nodetypes="cscsc" />
    </clipPath>
  </defs>
  <metadata
     id="metadata5075">
    <rdf:RDF>
      <cc:Work
         rdf:about="">
        <dc:format>image/svg+xml</dc:format>
        <dc:type
           rdf:resource="http://purl.org/dc/dcmitype/StillImage" />
        <dc:title></dc:title>
      </cc:Work>
    </rdf:RDF>
  </metadata>
  <g
     transform="translate(6711.7287,-1466.7246)"
     inkscape:label="RASZTER"
     id="layer3"
     inkscape:groupmode="layer" />
  <g
     transform="translate(6711.7287,-1466.7246)"
     inkscape:label="rajz"
     id="layer2"
     inkscape:groupmode="layer">
    <g
       id="g15144">
      <path
         style="opacity:1;fill:#f7b800;fill-opacity:1;stroke:#000000;stroke-width:1.20000017;stroke-linecap:butt;stroke-linejoin:round;stroke-miterlimit:4;stroke-dasharray:none;stroke-dashoffset:0;stroke-opacity:1"
         d="m -6411.0829,1578.6995 c 41.7621,-2.3088 84.9301,5.6921 129.5207,24.125 3.5822,-3.4261 8.659,-13.2814 7.0625,-23.75 0.8471,-0.7982 0.416,-1.5813 1.2084,-2.3494 28.7617,-27.8823 29.9007,-38.2844 56.2291,-38.7756 -9.1299,-17.7168 -30.022,-9.7444 -29.414,0.1649 1.6497,-12.726 -8.2106,-22.3991 -10.836,-25.8524 -2.0102,7.273 -7.0485,17.3814 -1.2302,27.5543 -6.7428,-11.3616 -20.2787,-9.4314 -25.8948,-9.3668 4.6508,7.0484 9.7718,16.4253 21.3019,18.523 -23.5197,14.6252 -58.2905,15.9964 -73.0052,-12.8253 5.62,4.532 13.2854,2.6354 20.4533,2.3023 -2.9483,-3.7514 -9.4182,-10.4185 -17.0243,-9.8679 4.539,-4.8867 4.4823,-12.2684 0.7743,-21.6321 -4.5885,3.0467 -11.3028,8.1588 -9.3816,19.275 -5.9382,-4.4734 -12.7698,-2.5716 -18.7497,-1.7598 5.1051,5.6467 11.1017,11.3666 17.961,10.1462 -22.9827,22.3453 -50.1059,14.8027 -60.9525,-13.1413 9.7544,5.2577 18.756,2.2351 27.8728,0.4799 -7.5237,-7.2788 -15.1124,-13.1944 -22.9665,-13.5346 5.3984,-4.092 8.1681,-11.7984 10.9665,-19.4654 -7.1348,2.2834 -14.3011,4.5314 -18.8362,9.7395 5.6602,-14.2467 -0.9294,-23.6709 -5.0596,-31.3645 -4.1302,7.6936 -10.7198,17.1178 -5.0596,31.3645 -4.5351,-5.2081 -11.7014,-7.4561 -18.8362,-9.7395 2.7984,7.667 5.5681,15.3734 10.9665,19.4654 -7.8541,0.3402 -15.4428,6.2558 -22.9665,13.5346 9.1168,1.7552 18.1184,4.7778 27.8728,-0.4799 -10.8466,27.944 -37.9698,35.4866 -60.9525,13.1413 6.8593,1.2204 12.8559,-4.4995 17.961,-10.1462 -5.9799,-0.8118 -12.8115,-2.7136 -18.7497,1.7598 1.9212,-11.1162 -4.7931,-16.2283 -9.3816,-19.275 -3.708,9.3637 -3.7647,16.7454 0.7743,21.6321 -7.6061,-0.5506 -14.076,6.1165 -17.0243,9.8679 7.1679,0.3331 14.8333,2.2297 20.4533,-2.3023 -14.7147,28.8217 -49.4855,27.4505 -73.0052,12.8253 11.5301,-2.0977 16.6511,-11.4746 21.3019,-18.523 -5.6161,-0.065 -19.152,-1.9948 -25.8948,9.3668 5.8183,-10.1729 0.78,-20.2813 -1.2302,-27.5543 -2.6254,3.4533 -12.4857,13.1264 -10.836,25.8524 0.608,-9.9093 -20.2841,-17.8817 -29.414,-0.1649 26.3284,0.4912 27.4674,10.8933 56.2291,38.7756 0.7924,0.7681 0.3613,1.5512 1.2084,2.3494 -1.5965,10.4686 3.4803,20.3239 7.0625,23.75 44.5906,-18.4329 87.7586,-26.4338 129.5207,-24.125"
         id="path14998"
         inkscape:connector-curvature="0"
         sodipodi:nodetypes="cccscccccccccccccccccccccccccccccccccccccsccc"
         inkscape:transform-center-x="-97.010464"
         inkscape:transform-center-y="76.714299" />
      <path
         sodipodi:nodetypes="ccsc"
         inkscape:connector-curvature="0"
         id="path14628"
         d="m -6411.0831,1631.6874 -197.2663,0 0,228.0975 c 0,88.0454 100.5938,204.8689 197.2663,226.6024"
         style="opacity:1;fill:#005ca1;fill-opacity:1;stroke:#000000;stroke-width:2.00000024;stroke-linecap:butt;stroke-linejoin:round;stroke-miterlimit:4;stroke-dasharray:none;stroke-dashoffset:0;stroke-opacity:1" />
      <path
         id="path14634"
         transform="translate(-6053.2288,1374.7525)"
         d="m -555.11719,485.19727 c 0.12428,88.02647 100.65096,204.71744 197.26367,226.4375 l 0,-226.4375 -197.26367,0 z"
         style="opacity:1;fill:#da251c;fill-opacity:1;stroke:#000000;stroke-width:2.00000024;stroke-linecap:butt;stroke-linejoin:round;stroke-miterlimit:4;stroke-dasharray:none;stroke-dashoffset:0;stroke-opacity:1"
         inkscape:connector-curvature="0" />
      <path
         style="opacity:1;fill:none;fill-opacity:1;stroke:#000000;stroke-width:2.00000024;stroke-linecap:butt;stroke-linejoin:round;stroke-miterlimit:4;stroke-dasharray:none;stroke-dashoffset:0;stroke-opacity:1"
         d="m -6411.0831,1631.6874 -197.2663,0 0,228.0975 c 0,88.0454 100.5938,204.8689 197.2663,226.6024"
         id="path14642"
         inkscape:connector-curvature="0"
         sodipodi:nodetypes="ccsc" />
      <path
         style="opacity:1;fill:none;fill-opacity:1;stroke:#000000;stroke-width:2.00000024;stroke-linecap:butt;stroke-linejoin:round;stroke-miterlimit:4;stroke-dasharray:none;stroke-dashoffset:0;stroke-opacity:1"
         d="m -6411.0831,1631.6874 -197.2663,0 0,228.0975 c 0,88.0454 100.5938,204.8689 197.2663,226.6024"
         id="path14644"
         inkscape:connector-curvature="0"
         sodipodi:nodetypes="ccsc" />
      <path
         inkscape:transform-center-y="251.00181"
         inkscape:transform-center-x="-98.633264"
         style="opacity:1;fill:#d7d7d7;fill-opacity:1;stroke:#000000;stroke-width:2.00000024;stroke-linecap:butt;stroke-linejoin:round;stroke-miterlimit:4;stroke-dasharray:none;stroke-dashoffset:0;stroke-opacity:1"
         d="m -6411.0829,1631.6874 197.2663,0 0,228.0975 c 0,88.0454 -100.5938,204.8689 -197.2663,226.6024 z"
         id="path14632"
         inkscape:connector-curvature="0"
         sodipodi:nodetypes="ccscc" />
      <path
         id="rect14630"
         transform="translate(-6053.2288,1374.7525)"
         d="m -357.85352,485.19727 0,226.4375 c 96.61273,-21.72007 197.13943,-138.41103 197.26368,-226.4375 l -197.26368,0 z"
         style="color:#000000;clip-rule:nonzero;display:inline;overflow:visible;visibility:visible;opacity:1;isolation:auto;mix-blend-mode:normal;color-interpolation:sRGB;color-interpolation-filters:linearRGB;solid-color:#000000;solid-opacity:1;fill:#005ca1;fill-opacity:1;fill-rule:nonzero;stroke:#000000;stroke-width:2.00000024;stroke-linecap:butt;stroke-linejoin:miter;stroke-miterlimit:4;stroke-dasharray:none;stroke-dashoffset:0;stroke-opacity:1;color-rendering:auto;image-rendering:auto;shape-rendering:auto;text-rendering:auto;enable-background:accumulate"
         inkscape:connector-curvature="0" />
      <path
         inkscape:connector-curvature="0"
         id="rect14646"
         d="m -6410.8608,1631.6874 0,37.8301 196.8222,0 0,-37.8301 -196.8222,0 z m 0,76.5 0,37.8301 196.8222,0 0,-37.8301 -196.8222,0 z m 0,76 0,37.8301 196.8222,0 0,-37.8301 -196.8222,0 z"
         style="color:#000000;clip-rule:nonzero;display:inline;overflow:visible;visibility:visible;opacity:1;isolation:auto;mix-blend-mode:normal;color-interpolation:sRGB;color-interpolation-filters:linearRGB;solid-color:#000000;solid-opacity:1;fill:#da251c;fill-opacity:1;fill-rule:nonzero;stroke:#000000;stroke-width:2.00000024;stroke-linecap:butt;stroke-linejoin:miter;stroke-miterlimit:4;stroke-dasharray:none;stroke-dashoffset:0;stroke-opacity:1;color-rendering:auto;image-rendering:auto;shape-rendering:auto;text-rendering:auto;enable-background:accumulate" />
      <g
         transform="translate(-720.00001,-94.00001)"
         id="g14713">
        <path
           inkscape:transform-center-y="-60.721449"
           inkscape:transform-center-x="-210.35723"
           sodipodi:nodetypes="cccccc"
           inkscape:connector-curvature="0"
           id="path14676"
           d="m -5391.4372,2072.1995 c -15.209,13.2792 -31.9487,24.6026 -59,22.75 21.1023,-12.282 29.0543,-32.3567 32.25,-55.25 -39.0516,46.8828 -163.1005,65.7696 -151,88 l 30,46 c 24.6815,-56.7074 122.5,-33.9167 147.75,-101.5 z"
           style="opacity:1;fill:#005ca1;fill-opacity:1;stroke:#000000;stroke-width:2.00000024;stroke-linecap:butt;stroke-linejoin:round;stroke-miterlimit:4;stroke-dasharray:none;stroke-dashoffset:0;stroke-opacity:1" />
        <path
           style="opacity:1;fill:#005ca1;fill-opacity:1;stroke:#000000;stroke-width:2.00000024;stroke-linecap:butt;stroke-linejoin:round;stroke-miterlimit:4;stroke-dasharray:none;stroke-dashoffset:0;stroke-opacity:1"
           d="m -5990.7288,2072.1995 c 15.209,13.2792 31.9487,24.6026 59,22.75 -21.1023,-12.282 -29.0543,-32.3567 -32.25,-55.25 39.0516,46.8828 163.1005,65.7696 151,88 l -30,46 c -24.6815,-56.7074 -122.5,-33.9167 -147.75,-101.5 z"
           id="path14660"
           inkscape:connector-curvature="0"
           sodipodi:nodetypes="cccccc"
           inkscape:transform-center-x="210.35719"
           inkscape:transform-center-y="-60.721449" />
        <path
           style="opacity:1;fill:#005ca1;fill-opacity:1;stroke:#000000;stroke-width:2.00000024;stroke-linecap:butt;stroke-linejoin:round;stroke-miterlimit:4;stroke-dasharray:none;stroke-dashoffset:0;stroke-opacity:1"
           d="m -5691.0831,2235.7452 c -69.3342,0 -184.9738,-37.8305 -169.2823,-62.9325 l 26.3397,-41.8961 c -15.8275,25.3523 86.0844,58.8112 142.9427,58.8112 56.8583,0 158.7702,-33.4589 142.9427,-58.8112 l 26.3397,41.8961 c 15.6915,25.102 -99.9481,62.9325 -169.2823,62.9325"
           id="path14658"
           inkscape:connector-curvature="0"
           sodipodi:nodetypes="ccczccc"
           inkscape:transform-center-x="85.364466"
           inkscape:transform-center-y="17.324143" />
        <path
           style="opacity:1;fill:none;fill-opacity:1;stroke:#000000;stroke-width:2.00000024;stroke-linecap:butt;stroke-linejoin:round;stroke-miterlimit:4;stroke-dasharray:none;stroke-dashoffset:0;stroke-opacity:1"
           d="m -5834.0257,2130.9165 c 5.5417,-8.1423 15.4637,5.3439 21.0469,-3.2171"
           id="path14662"
           inkscape:connector-curvature="0"
           sodipodi:nodetypes="cc"
           inkscape:transform-center-x="132.41921"
           inkscape:transform-center-y="-38.113002" />
        <path
           style="opacity:1;fill:#f7ba01;fill-opacity:1;stroke:#000000;stroke-width:2.00000024;stroke-linecap:butt;stroke-linejoin:round;stroke-miterlimit:4;stroke-dasharray:none;stroke-dashoffset:0;stroke-opacity:1"
           d="m -5830.3245,2146.5324 c -5.5523,-6.1488 -6.369,-13.3272 -1.9148,-16.8309 1.7499,-1.3765 3.786,-1.3227 9.2313,0.2439 2.9869,0.8593 4.9875,1.1759 6.0107,0.9511 1.5008,-0.3296 1.5194,-0.3107 0.8671,0.8796 -1.4534,2.6523 -11.1871,17.3614 -11.4952,17.371 -0.1808,0.01 -1.3954,-1.171 -2.6991,-2.6147 z"
           id="path14674"
           inkscape:connector-curvature="0"
           inkscape:transform-center-x="134.32963"
           inkscape:transform-center-y="-28.488893" />
        <path
           inkscape:transform-center-y="-38.113002"
           inkscape:transform-center-x="-132.41925"
           sodipodi:nodetypes="cc"
           inkscape:connector-curvature="0"
           id="path14680"
           d="m -5548.1403,2130.9165 c -5.5417,-8.1423 -15.4637,5.3439 -21.0469,-3.2171"
           style="opacity:1;fill:none;fill-opacity:1;stroke:#000000;stroke-width:2.00000024;stroke-linecap:butt;stroke-linejoin:round;stroke-miterlimit:4;stroke-dasharray:none;stroke-dashoffset:0;stroke-opacity:1" />
        <path
           inkscape:transform-center-y="-28.48889"
           inkscape:transform-center-x="-134.32962"
           inkscape:connector-curvature="0"
           id="path14682"
           d="m -5551.8416,2146.5324 c 5.5523,-6.1488 6.369,-13.3272 1.9149,-16.8309 -1.75,-1.3765 -3.786,-1.3227 -9.2314,0.2439 -2.9868,0.8593 -4.9874,1.1759 -6.0106,0.9511 -1.5008,-0.3296 -1.5194,-0.3107 -0.8671,0.8796 1.4533,2.6523 11.187,17.3614 11.4952,17.371 0.1808,0.01 1.3953,-1.171 2.699,-2.6147 z"
           style="opacity:1;fill:#f7ba01;fill-opacity:1;stroke:#000000;stroke-width:2.00000024;stroke-linecap:butt;stroke-linejoin:round;stroke-miterlimit:4;stroke-dasharray:none;stroke-dashoffset:0;stroke-opacity:1" />
        <path
           style="fill:#f6b801;fill-opacity:1;stroke:#4d4d4d;stroke-width:0.30000004;stroke-miterlimit:4;stroke-dasharray:none"
           d="m -5707.4023,2227.5368 c -0.6561,-0.074 -2.0154,-0.1739 -3.0132,-0.2672 l -1.8222,-0.1701 -4.014,-6.5511 -4.0181,-6.5511 -1.5283,-0.021 -1.5311,-0.021 -0.184,2.1718 c -0.6116,7.168 -0.6005,8.1092 0.1,8.9607 0.389,0.4928 1.1395,0.9284 1.9045,1.1107 0.9636,0.2293 0.4116,0.2584 -2.3278,0.1246 -1.9759,-0.1 -3.7952,-0.2123 -4.0415,-0.2603 -0.2462,-0.066 -1.1895,-0.1092 -2.0942,-0.1345 -1.7472,-0.068 -1.7333,-0.1352 0.099,-0.4374 1.3898,-0.2317 2.2246,-1.0916 2.4485,-2.5147 0.2491,-1.5757 1.3671,-17.8223 1.3671,-19.8511 0,-2.0244 -0.5787,-2.7582 -2.5167,-3.1941 -1.7963,-0.4056 -0.6838,-0.3862 5.6756,0.1 6.2168,0.4738 8.0158,0.778 9.9015,1.6853 1.8307,0.8783 3.3997,3.3806 3.3997,5.4204 0,3.3521 -2.2825,5.744 -6.3411,6.6485 l -0.8048,0.1776 3.1448,5.0123 c 1.7284,2.7575 3.5728,5.4627 4.0965,6.0121 1.0013,1.0499 2.8537,2.1425 3.6334,2.1425 0.2536,0 0.4612,0.1354 0.4612,0.2987 0,0.1651 -0.1676,0.2761 -0.3733,0.25 -0.2058,-0.038 -0.9134,-0.1 -1.572,-0.1467 z m -9.1032,-15.5151 c 1.6642,-1.1785 2.3861,-2.1957 2.6746,-3.7615 0.5322,-2.9036 -1.155,-5.8071 -3.7933,-6.5399 -1.3324,-0.3712 -3.9772,-0.4193 -4.5088,-0.1 -0.2331,0.1503 -0.474,1.789 -0.6707,4.5596 -0.1723,2.3807 -0.3774,4.9157 -0.4572,5.633 l -0.1481,1.2991 2.816,-0.1062 c 2.5619,-0.099 2.93,-0.1842 4.0875,-1.0011 z m 27.5123,15.5334 c 1.5609,-0.3088 2.3633,-0.8057 2.8064,-1.7342 0.4038,-0.855 0.4108,-2.1334 0.072,-11.5699 -0.2232,-5.8349 -0.4919,-10.8232 -0.5978,-11.0834 -0.2412,-0.5874 -2.0041,-1.4538 -3.0966,-1.5222 -1.2492,-0.099 5.4606,-0.4704 8.1656,-0.4773 2.1883,-0.01 2.2865,0.025 1.1315,0.2772 -0.7841,0.1751 -1.5047,0.5889 -1.9032,1.0893 -0.6275,0.7934 -0.6357,0.9392 -0.4231,7.9835 0.372,12.3919 0.5623,15.066 1.1085,15.6125 0.2687,0.2681 1.1384,0.6617 1.9333,0.8756 l 1.4459,0.3885 -1.9735,0.027 c -1.0863,0.015 -3.6445,0.099 -5.6872,0.1548 -2.0426,0.099 -3.376,0.093 -2.9642,-0.019 z m 29.8258,-1.9153 c -0.3868,-1.7139 -1.0969,-6.5719 -1.0771,-7.3701 0.02,-0.751 0.1125,-0.6507 0.7595,0.7851 1.4988,3.3005 3.7585,4.7886 7.2816,4.7886 3.4672,0 6.0043,-1.9213 6.0043,-4.5478 0,-2.6551 -1.3515,-3.8661 -6.6089,-5.9149 -6.5572,-2.5553 -8.2914,-3.6458 -9.2888,-5.8357 -1.5058,-3.3173 0.1563,-7.3007 3.6888,-8.8543 1.7402,-0.7637 4.0645,-0.9083 7.3465,-0.4583 l 1.8632,0.2567 0.4426,-1.0157 c 0.2431,-0.5575 0.4491,-0.9469 0.4594,-0.8648 0.014,0.099 0.3404,2.1017 0.7367,4.4887 0.3945,2.3867 0.6671,4.3896 0.6041,4.4519 -0.086,0.086 -0.4409,-0.6323 -0.847,-1.5413 -2.1119,-4.7831 -7.676,-6.5492 -10.8735,-3.4518 -1.9202,1.8619 -1.8631,4.3083 0.1442,5.8537 1.2532,0.9682 3.268,1.8818 7.8435,3.5596 4.0985,1.5 5.6327,2.5366 6.5879,4.447 1.8843,3.7683 0.2813,7.9778 -3.7108,9.7437 -1.9107,0.8445 -4.3345,1.0428 -7.3534,0.6008 -2.6323,-0.3845 -3.117,-0.2479 -3.6042,1.0182 -0.2178,0.5745 -0.2404,0.5668 -0.3986,-0.1393 z m -94.0256,-4.2981 c -4.2193,-1.0687 -4.6565,-1.2364 -3.6796,-1.401 1.6546,-0.28 2.0348,-0.7377 2.0348,-2.4355 0,-1.3254 -0.5628,-5.6265 -0.7705,-5.8859 -0.063,-0.079 -2.3758,-0.6793 -5.1734,-1.382 l -5.0849,-1.2773 -1.9706,2.6507 c -2.5876,3.4758 -2.6975,4.3261 -0.6909,5.3181 1.6913,0.8374 0.8722,0.7933 -3.0023,-0.1596 -3.3584,-0.826 -4.4161,-1.3053 -2.8853,-1.3053 1.8493,0 2.8077,-1.098 14.1891,-16.2423 2.5547,-3.3949 4.7735,-6.1352 4.9353,-6.0904 0.1617,0.062 1.1896,5.8626 2.2842,12.9278 1.0946,7.0655 2.1523,13.2755 2.3494,13.7993 0.3218,0.8713 1.2991,1.7756 2.3834,2.213 0.2358,0.098 0.3026,0.2433 0.1513,0.3285 -0.153,0.1 -2.4364,-0.3903 -5.07,-1.0581 z m -2.549,-11.1901 c -0.019,-0.6706 -1.7817,-11.5385 -1.8958,-11.6526 -0.1448,-0.1482 -7.2237,9.0485 -7.2237,9.3895 0,0.1149 1.9494,0.7093 4.335,1.3202 4.9882,1.2752 4.7909,1.2378 4.7845,0.9429 z m 132.0468,8.1619 c 0.695,-0.4714 1.2283,-1.1534 1.467,-1.8708 0.2065,-0.6213 1.1953,-6.8592 2.1937,-13.8642 1.0032,-7.0044 1.9574,-12.7821 2.1218,-12.838 0.1642,-0.078 3.5712,4.1256 7.5665,9.2932 4.0016,5.1685 7.5047,9.6886 7.7857,10.0458 1.1858,1.4943 2.8087,2.4937 4.0526,2.4937 0.7069,0 1.0969,0.1087 0.9317,0.2596 -0.3367,0.3081 -9.4787,2.7669 -9.6522,2.5952 -0.089,-0.089 0.2853,-0.3249 0.7736,-0.5777 0.9091,-0.4689 1.2598,-1.017 1.2598,-1.9571 0,-0.5036 -3.1112,-4.9361 -3.9573,-5.6382 -0.3033,-0.2514 -1.6091,-0.01 -5.299,0.9913 -2.6968,0.7286 -4.9461,1.3684 -4.9961,1.422 -0.074,0.074 -0.3094,1.5141 -0.5685,3.2465 -0.6459,4.371 -0.4185,4.8554 2.4024,5.1132 0.6182,0.078 -0.2321,0.3851 -2.7296,1.0547 -4.3566,1.1678 -4.7737,1.1959 -3.3521,0.2308 z m 9.5143,-12.2764 c 2.2158,-0.5941 4.055,-1.1058 4.0839,-1.1389 0.1,-0.1027 -7.211,-9.4648 -7.3938,-9.4754 -0.1511,-0.014 -1.77,10.5938 -1.7693,11.6059 2e-4,0.2348 0.2105,0.3326 0.5241,0.2415 0.2872,-0.1 2.3376,-0.6391 4.5551,-1.2331 z m -184.2387,1.1918 c -1.9691,-0.5298 -3.3158,-1.2935 -5.5411,-3.1449 -1.9255,-1.6038 -2.4528,-1.763 -3.3009,-0.9946 -0.4345,0.3906 -0.5492,0.4066 -0.5492,0.099 0,-0.6527 3.0928,-7.7569 3.3773,-7.7569 0.1397,0 0.1593,0.2956 0.062,0.6561 -0.1144,0.3601 -0.2173,1.4741 -0.2252,2.4769 -0.041,3.1595 2.1407,6.0156 5.4652,7.1885 1.7126,0.604 2.5792,0.5726 4.036,-0.1499 2.4777,-1.2268 3.1536,-3.4297 1.8602,-6.0491 -0.4298,-0.868 -1.3115,-2.2507 -1.9624,-3.0737 -2.3255,-2.9493 -4.7913,-6.7444 -5.0986,-7.8525 -0.953,-3.4299 0.4593,-6.4914 3.6213,-7.8521 3.093,-1.331 7.0447,-0.3011 9.862,2.5703 1.3767,1.403 2.1362,1.6089 3.0117,0.816 0.8325,-0.753 0.6775,-0.1642 -0.9506,3.6388 -2.0723,4.843 -2.0595,4.8287 -1.8757,1.8834 0.143,-2.2677 0.099,-2.7437 -0.5214,-3.9877 -0.931,-1.9233 -2.5242,-3.3377 -4.383,-3.8952 -2.3384,-0.6995 -4.3597,0.087 -5.3776,2.0315 -0.9966,1.9283 -0.2103,3.7102 4.0622,9.1859 2.8826,3.6951 3.6369,5.1049 3.8214,7.1387 0.3061,3.3758 -1.5834,6.0542 -4.9831,7.0634 -1.9242,0.5716 -2.3773,0.5746 -4.3976,0.041 z m 217.2316,-2.2556 c 1.2323,-0.6492 1.7338,-1.3652 1.7338,-2.4712 0,-1.3085 -7.8251,-19.5934 -8.862,-20.7153 -0.7602,-0.8205 -1.7238,-0.9074 -3.2596,-0.2934 -0.4016,0.1597 -0.4989,0.1395 -0.2999,-0.084 0.4024,-0.4059 8.8369,-3.948 11.0264,-4.6301 2.4426,-0.7663 4.7826,-0.7047 6.6303,0.1635 1.7588,0.8274 2.3005,1.3777 3.1211,3.1888 0.6099,1.3489 0.782,3.3083 0.434,5.0409 -0.4507,2.2608 -3.9586,4.8265 -7.821,5.7215 -0.8622,0.1983 -1.5683,0.4211 -1.5683,0.4973 0,0.1 0.8316,2.0863 1.8444,4.4717 2.3904,5.6015 3.1771,6.3892 5.5107,5.5043 0.4441,-0.1725 0.8599,-0.255 0.9251,-0.1909 0.1551,0.1496 -9.7094,4.3893 -10.1734,4.3736 -0.194,-0.01 0.1484,-0.2787 0.7584,-0.6029 z m 2.5815,-14.8123 c 3.9163,-1.1634 5.5146,-4.5549 3.8048,-8.0677 -1.3636,-2.7971 -2.8158,-3.8687 -5.2515,-3.8704 -1.984,0 -4.9323,1.3962 -4.6451,2.203 0.626,1.7821 4.2279,10.1827 4.365,10.1892 0.1,0.01 0.8696,-0.2004 1.7268,-0.4541 z m -177.7306,0.59 c 0,-0.1 0.7095,-1.3753 1.5763,-2.8466 1.7217,-2.9356 1.3919,-2.7755 4.2071,-2.0366 l 1.1399,0.2994 -0.693,0.5254 c -1.8352,1.3957 -5.8895,4.2291 -6.0487,4.2291 -0.099,0 -0.1816,-0.1 -0.1816,-0.1707 z m 136.2821,-4.5427 c 0.1065,-1.1111 0.1938,-2.574 0.1948,-3.2502 l 0.01,-1.2304 1.7049,-0.4841 c 0.9352,-0.2668 1.7442,-0.4422 1.7963,-0.3903 0.1778,0.1779 -3.3496,7.3666 -3.6179,7.3711 -0.1488,0.01 -0.1835,-0.8843 -0.1,-2.0161 z m 94.9213,-45.4731 c 1.8344,-1.4511 2.0005,-1.679 1.7988,-2.4903 -0.3556,-1.411 -9.4097,-18.134 -10.2021,-18.8344 -1.0049,-0.8896 -1.4009,-0.8502 -2.5004,0.2482 -1.5524,1.5534 -1.0286,0.4151 1.2013,-2.6004 1.9197,-2.6015 2.1558,-2.8187 2.4916,-2.317 0.2044,0.3057 2.5102,4.5951 5.1205,9.5335 6.4015,12.1148 6.278,11.8946 7.1419,12.5446 0.7174,0.541 0.8316,0.5464 1.97,0.1 2.3745,-0.9334 1.1419,-0.036 -2.76,2.0272 -3.9866,2.1013 -5.415,2.7006 -4.2616,1.789 z m -336.0983,-5.9212 c -2.4715,-1.2873 -4.155,-2.2627 -3.7437,-2.1679 2.2837,0.5275 2.4176,0.5275 3.0015,0 0.7676,-0.6928 1.827,-2.6323 6.2419,-11.3842 2.0162,-4.0126 3.6242,-7.5664 3.6242,-8.0265 0,-1.0173 -0.5085,-1.5544 -1.8292,-1.9351 -0.8096,-0.2326 -0.3247,-0.2962 2.429,-0.3126 1.8924,-0.017 3.5912,0.1 3.776,0.1965 0.2238,0.1472 -1.5171,3.8353 -5.1838,10.9945 -3.0434,5.9264 -5.5961,11.2578 -5.6803,11.8471 -0.1421,0.9629 -0.055,1.1701 0.9801,2.0125 0.6245,0.5166 1.0795,0.9787 1.0047,1.0268 -0.1,0.067 -2.153,-0.9647 -4.6204,-2.2521 z m 352.2157,-0.9026 c 3.6997,-2.3973 5.0039,-3.8781 6.1776,-7.0116 0.8254,-2.2051 1.1988,-4.2097 1.1988,-6.4477 l 0,-1.7969 -1.4568,1.3612 c -2.2527,2.1096 -3.6377,2.6959 -6.0319,2.5613 -2.6958,-0.1523 -4.3652,-1.3502 -5.7572,-4.1329 -2.3905,-4.768 -0.8558,-10.6147 3.2968,-12.5882 6.1647,-2.9292 13.204,3.8107 13.234,12.6728 0.033,6.4508 -4.5322,13.5663 -9.7803,15.2742 -0.8082,0.2636 -1.1935,0.3107 -0.881,0.1078 z m 3.8473,-13.5098 c 1.2823,-0.5364 3.2299,-2.5011 3.2299,-3.2587 0,-1.0276 -0.942,-4.2183 -1.7073,-5.7775 -0.9656,-1.9761 -3.3659,-4.4478 -4.7631,-4.9089 -1.5629,-0.5174 -3.1058,0.015 -4.1949,1.4331 -0.7831,1.0242 -0.8559,1.328 -0.8445,3.516 0.026,2.9009 0.9643,5.2632 2.9199,7.291 1.9803,2.0598 3.4181,2.5162 5.36,1.705 z m 14.9005,8.1121 c 0,-0.095 0.709,-0.5407 1.573,-1.0281 1.9755,-1.1154 3.9439,-3.2316 4.8797,-5.2474 0.9686,-2.086 1.6839,-5.432 1.571,-7.3366 l -0.1,-1.5532 -1.3449,1.203 c -1.8619,1.663 -3.592,2.4504 -5.3591,2.4372 -2.9457,-0.031 -5.0953,-1.5567 -6.501,-4.644 -1.6246,-3.5637 -0.9395,-8.2823 1.5628,-10.785 2.1059,-2.103 5.4046,-2.6153 8.2963,-1.2905 4.3694,1.999 7.0454,7.337 6.708,13.3813 -0.327,5.9308 -3.8469,11.7234 -8.4384,13.903 -1.634,0.7741 -2.8548,1.1844 -2.8548,0.9603 z m 5.4052,-14.2226 c 0.7317,-0.4714 1.6274,-1.1835 1.9937,-1.5831 l 0.6669,-0.7273 -0.5846,-2.4566 c -1.0727,-4.4914 -3.4099,-7.8453 -6.0839,-8.7267 -2.1073,-0.696 -4.2541,0.7072 -5.0229,3.2773 -0.6559,2.1804 0.808,6.8152 2.8205,8.9385 2.2165,2.3391 3.9891,2.7042 6.2103,1.2779 z m -395.833,13.4847 c -2.969,-1.0271 -4.7352,-3.0422 -5.1173,-5.8456 -0.407,-2.9625 1.2295,-5.1618 5.2122,-7.002 1.2071,-0.5587 2.1525,-1.1081 2.1003,-1.222 -0.071,-0.1138 -0.6249,-1.1469 -1.2823,-2.2965 -2.1537,-3.7945 -1.737,-7.27 1.1176,-9.2799 1.0582,-0.7484 1.6143,-0.9133 3.3659,-1.0001 4.6429,-0.2292 8.3623,2.6427 8.3012,6.4139 -0.054,2.5798 -1.7656,4.3209 -5.4289,5.4762 l -2.1075,0.6648 1.188,1.739 c 1.827,2.6736 2.4916,4.3972 2.4913,6.4567 0,4.8639 -4.6903,7.6749 -9.8405,5.8955 z m 4.2716,-0.5188 c 1.904,-0.7956 2.7706,-2.1523 2.7706,-4.334 0,-1.1984 -1.7088,-4.8506 -3.1732,-6.7841 -0.3909,-0.5235 -0.7163,-1.099 -0.7163,-1.2775 0,-0.5256 -2.1935,0.7384 -3.4431,1.9867 -1.9124,1.9108 -2.8515,4.7302 -2.2789,6.863 0.5495,2.0188 2.9581,3.8651 5.2041,3.9788 0.2936,0.021 1.0279,-0.18 1.6368,-0.4329 z m 4.0856,-15.6847 c 1.5808,-1.0908 2.1501,-1.7329 2.7128,-3.0873 1.4236,-3.4034 -0.3283,-6.1238 -4.133,-6.4291 -1.8654,-0.1502 -1.9297,-0.1301 -3.1382,0.9594 -2.1255,1.9186 -2.0022,3.997 0.4548,7.7436 1.5215,2.3262 1.8265,2.387 4.1036,0.8134 z m -27.7628,9.6941 c -2.2848,-0.7161 -4.2185,-1.3731 -4.3064,-1.4571 -0.099,-0.096 0.5038,-0.096 1.3057,0.022 1.2756,0.1488 1.5507,0.099 2.1153,-0.5323 0.7479,-0.8056 6.3829,-18.868 6.3829,-20.4538 0,-1.1825 -0.7168,-1.8691 -2.0951,-2.0044 -0.7027,-0.096 0.1032,-0.2857 2.4804,-0.6624 1.9366,-0.3078 3.5966,-0.4891 3.6807,-0.4026 0.1,0.098 -1.3968,5.2554 -3.2944,11.4878 -1.8975,6.2325 -3.5432,11.773 -3.6485,12.3127 -0.2243,1.1347 0.3731,1.996 1.827,2.6392 1.8409,0.8122 -0.3244,0.3541 -4.4476,-0.9414 z m 434.5685,-2.3037 c -0.1,-0.7002 -0.7282,-6.1878 -1.4037,-12.1971 -0.6762,-6.0075 -1.3187,-11.145 -1.432,-11.4168 -0.1709,-0.4245 -0.8019,-0.2065 -4.3983,1.5168 -2.3087,1.1057 -4.5661,2.3815 -5.018,2.8343 -0.455,0.4523 -0.9836,1.4191 -1.1774,2.1488 -0.1957,0.7291 -0.4568,1.3265 -0.5841,1.3265 -0.1219,0 -0.2626,-1.3769 -0.3095,-3.0586 l -0.099,-3.0581 2.2446,-1.0801 c 5.5578,-2.6723 10.496,-4.8553 10.6414,-4.7056 0.1,0.1 0.8271,6.07 1.6414,13.2899 0.8069,7.2196 1.543,13.5423 1.6289,14.0503 0.1348,0.7759 0.052,0.9779 -0.6035,1.2722 -0.4251,0.1912 -0.8162,0.3487 -0.8672,0.3487 -0.077,0 -0.1811,-0.5724 -0.2775,-1.2712 z m -451.8897,-3.7475 c -4.234,-1.9078 -5.7786,-2.8628 -3.1805,-1.9685 1.0867,0.3762 1.312,0.3693 1.9493,-0.067 0.3999,-0.2632 1.0409,-1.1764 1.4262,-2.0329 1.8467,-4.0854 6.9963,-15.7322 7.3266,-16.5616 0.2075,-0.5223 0.3369,-1.3281 0.2802,-1.7898 -0.1,-0.7044 -0.3304,-0.936 -1.4452,-1.3485 l -1.345,-0.4943 3.5896,-0.1261 c 1.9773,-0.098 3.6488,-0.1 3.7162,-0.05 0.094,0.071 -2.0466,4.9753 -4.6936,10.9458 -2.6493,5.9648 -4.9627,11.2283 -5.139,11.6913 -0.4653,1.2287 -0.1121,2.1541 1.0517,2.7845 0.5676,0.3018 1.0258,0.6523 1.0258,0.7816 0,0.2928 0.5269,0.5006 -4.5623,-1.7954 z"
           id="path14704"
           inkscape:connector-curvature="0"
           sodipodi:nodetypes="cccccccccccccccscccsccccssccccccccccccccccccccccccccccccccssscccccccccccccccccccscccccssccsccccccsccccccccscccsccccccccccccccccsscccccccscccccccccccccsccccccccsccccccccccccsccccssccccccccccccccccccccccccscccccccccccscccccccccsccccccccccccccccccccccccccccccccccccccccccscsccccccccccccccsccccccccccccccscccccccscccccccccccccccscc" />
      </g>
      <g
         transform="translate(-460.00001,0)"
         id="g14734">
        <rect
           style="color:#000000;clip-rule:nonzero;display:inline;overflow:visible;visibility:visible;opacity:1;isolation:auto;mix-blend-mode:normal;color-interpolation:sRGB;color-interpolation-filters:linearRGB;solid-color:#000000;solid-opacity:1;fill:#000000;fill-opacity:1;fill-rule:nonzero;stroke:#666666;stroke-width:1.50000012;stroke-linecap:butt;stroke-linejoin:miter;stroke-miterlimit:4;stroke-dasharray:none;stroke-dashoffset:0;stroke-opacity:1;color-rendering:auto;image-rendering:auto;shape-rendering:auto;text-rendering:auto;enable-background:accumulate"
           id="rect14730"
           width="9.7232428"
           height="109.86665"
           x="-5649.6533"
           y="-2946.3596"
           ry="2.8284273"
           transform="matrix(0.70710678,-0.70710678,0.70710677,0.70710679,0,0)" />
        <rect
           transform="matrix(0.70710678,0.70710678,-0.70710679,0.70710677,0,0)"
           ry="2.8284273"
           y="5588.6084"
           x="-2895.2878"
           height="109.86665"
           width="9.7232428"
           id="rect14732"
           style="color:#000000;clip-rule:nonzero;display:inline;overflow:visible;visibility:visible;opacity:1;isolation:auto;mix-blend-mode:normal;color-interpolation:sRGB;color-interpolation-filters:linearRGB;solid-color:#000000;solid-opacity:1;fill:#000000;fill-opacity:1;fill-rule:nonzero;stroke:#666666;stroke-width:1.50000012;stroke-linecap:butt;stroke-linejoin:miter;stroke-miterlimit:4;stroke-dasharray:none;stroke-dashoffset:0;stroke-opacity:1;color-rendering:auto;image-rendering:auto;shape-rendering:auto;text-rendering:auto;enable-background:accumulate" />
        <rect
           style="color:#000000;clip-rule:nonzero;display:inline;overflow:visible;visibility:visible;opacity:1;isolation:auto;mix-blend-mode:normal;color-interpolation:sRGB;color-interpolation-filters:linearRGB;solid-color:#000000;solid-opacity:1;fill:#000000;fill-opacity:1;fill-rule:nonzero;stroke:#666666;stroke-width:1.50000012;stroke-linecap:butt;stroke-linejoin:miter;stroke-miterlimit:4;stroke-dasharray:none;stroke-dashoffset:0;stroke-opacity:1;color-rendering:auto;image-rendering:auto;shape-rendering:auto;text-rendering:auto;enable-background:accumulate"
           id="rect14723"
           width="19.598927"
           height="44.458576"
           x="-2943.0364"
           y="5622.6431"
           transform="matrix(0.70710678,0.70710678,-0.70710677,0.70710679,0,0)" />
        <path
           style="color:#000000;clip-rule:nonzero;display:inline;overflow:visible;visibility:visible;opacity:1;isolation:auto;mix-blend-mode:normal;color-interpolation:sRGB;color-interpolation-filters:linearRGB;solid-color:#000000;solid-opacity:1;fill:#000000;fill-opacity:1;fill-rule:nonzero;stroke:#666666;stroke-width:1.50000012;stroke-linecap:butt;stroke-linejoin:miter;stroke-miterlimit:4;stroke-dasharray:none;stroke-dashoffset:0;stroke-opacity:1;color-rendering:auto;image-rendering:auto;shape-rendering:auto;text-rendering:auto;enable-background:accumulate"
           d="m -5994.5065,1915.3206 12.1286,37.8993 -44.9679,-44.9679 12.8853,-12.8854 z"
           id="rect14725"
           inkscape:connector-curvature="0"
           sodipodi:nodetypes="ccccc" />
      </g>
      <g
         transform="translate(-960.00001,0)"
         id="g14850">
        <path
           style="opacity:1;fill:#f6b801;fill-opacity:1;stroke:#000000;stroke-width:1.20000017;stroke-linecap:butt;stroke-linejoin:round;stroke-miterlimit:4;stroke-dasharray:none;stroke-dashoffset:0;stroke-opacity:1"
           d="m -5360.6038,1996.3245 -11.125,-8.125 1.5,-79.125 9.7435,-4.7475 10.3891,9.5823 -0.2038,77.3175"
           id="path14846"
           inkscape:connector-curvature="0" />
        <g
           transform="translate(240.00001,-85.340994)"
           id="g14830"
           inkscape:transform-center-x="13.412987"
           inkscape:transform-center-y="-29.403516"
           style="fill:#f6b801;fill-opacity:1;stroke:#000000;stroke-width:1.20000017;stroke-miterlimit:4;stroke-dasharray:none">
          <path
             inkscape:transform-center-y="-1.8341436"
             inkscape:transform-center-x="-2.51493"
             sodipodi:nodetypes="ccc"
             inkscape:connector-curvature="0"
             id="path14832"
             d="m -5619.2589,1981.9813 c 0.4936,9.4163 5.5167,20.2428 16.0597,18.2537 3.3154,-10.2034 -6.783,-16.5646 -16.0597,-18.2537 z"
             style="opacity:1;fill:#f6b801;fill-opacity:1;stroke:#000000;stroke-width:1.20000017;stroke-linecap:butt;stroke-linejoin:round;stroke-miterlimit:4;stroke-dasharray:none;stroke-dashoffset:0;stroke-opacity:1" />
          <path
             inkscape:connector-curvature="0"
             id="path14834"
             d="m -5619.2589,1981.9812 -6.2199,-8.0317"
             style="opacity:1;fill:#f6b801;fill-opacity:1;stroke:#000000;stroke-width:1.20000017;stroke-linecap:butt;stroke-linejoin:round;stroke-miterlimit:4;stroke-dasharray:none;stroke-dashoffset:0;stroke-opacity:1" />
        </g>
        <g
           inkscape:transform-center-y="-29.403516"
           inkscape:transform-center-x="-13.412505"
           id="g14836"
           transform="matrix(-1,0,0,1,-10961.208,-85.340994)"
           style="fill:#f6b801;fill-opacity:1;stroke:#000000;stroke-width:1.20000017;stroke-miterlimit:4;stroke-dasharray:none">
          <path
             style="opacity:1;fill:#f6b801;fill-opacity:1;stroke:#000000;stroke-width:1.20000017;stroke-linecap:butt;stroke-linejoin:round;stroke-miterlimit:4;stroke-dasharray:none;stroke-dashoffset:0;stroke-opacity:1"
             d="m -5619.2589,1981.9813 c 0.4936,9.4163 5.5167,20.2428 16.0597,18.2537 3.3154,-10.2034 -6.783,-16.5646 -16.0597,-18.2537 z"
             id="path14838"
             inkscape:connector-curvature="0"
             sodipodi:nodetypes="ccc"
             inkscape:transform-center-x="-2.51493"
             inkscape:transform-center-y="-1.8341436" />
          <path
             style="opacity:1;fill:#f6b801;fill-opacity:1;stroke:#000000;stroke-width:1.20000017;stroke-linecap:butt;stroke-linejoin:round;stroke-miterlimit:4;stroke-dasharray:none;stroke-dashoffset:0;stroke-opacity:1"
             d="m -5619.2589,1981.9812 -6.2199,-8.0317"
             id="path14840"
             inkscape:connector-curvature="0" />
        </g>
        <path
           inkscape:transform-center-y="-0.018375963"
           inkscape:transform-center-x="-2.9364902"
           sodipodi:nodetypes="ccc"
           inkscape:connector-curvature="0"
           id="path14842"
           d="m -5360.4852,1892.1708 c -5.8493,7.3957 -9.2293,18.8421 0,24.3125 9.2292,-5.4704 5.8492,-16.9168 0,-24.3125 z"
           style="opacity:1;fill:#f6b801;fill-opacity:1;stroke:#000000;stroke-width:1.20000017;stroke-linecap:butt;stroke-linejoin:round;stroke-miterlimit:4;stroke-dasharray:none;stroke-dashoffset:0;stroke-opacity:1" />
        <g
           inkscape:transform-center-y="-29.403516"
           inkscape:transform-center-x="13.412987"
           id="g14802"
           transform="translate(240.00001,-70.810663)"
           style="fill:#f6b801;fill-opacity:1;stroke:#000000;stroke-width:1.20000017;stroke-miterlimit:4;stroke-dasharray:none">
          <path
             style="opacity:1;fill:#f6b801;fill-opacity:1;stroke:#000000;stroke-width:1.20000017;stroke-linecap:butt;stroke-linejoin:round;stroke-miterlimit:4;stroke-dasharray:none;stroke-dashoffset:0;stroke-opacity:1"
             d="m -5619.2589,1981.9813 c 0.4936,9.4163 5.5167,20.2428 16.0597,18.2537 3.3154,-10.2034 -6.783,-16.5646 -16.0597,-18.2537 z"
             id="path14804"
             inkscape:connector-curvature="0"
             sodipodi:nodetypes="ccc"
             inkscape:transform-center-x="-2.51493"
             inkscape:transform-center-y="-1.8341436" />
          <path
             style="opacity:1;fill:#f6b801;fill-opacity:1;stroke:#000000;stroke-width:1.20000017;stroke-linecap:butt;stroke-linejoin:round;stroke-miterlimit:4;stroke-dasharray:none;stroke-dashoffset:0;stroke-opacity:1"
             d="m -5619.2589,1981.9812 -6.2199,-8.0317"
             id="path14806"
             inkscape:connector-curvature="0" />
        </g>
        <rect
           style="color:#000000;clip-rule:nonzero;display:inline;overflow:visible;visibility:visible;opacity:1;isolation:auto;mix-blend-mode:normal;color-interpolation:sRGB;color-interpolation-filters:linearRGB;solid-color:#000000;solid-opacity:1;fill:#f6b801;fill-opacity:1;fill-rule:nonzero;stroke:#000000;stroke-width:1.20000017;stroke-linecap:butt;stroke-linejoin:miter;stroke-miterlimit:4;stroke-dasharray:none;stroke-dashoffset:0;stroke-opacity:1;color-rendering:auto;image-rendering:auto;shape-rendering:auto;text-rendering:auto;enable-background:accumulate"
           id="rect14844"
           width="4.7729707"
           height="21.920311"
           x="-5362.8716"
           y="1991.2794"
           ry="0" />
        <g
           inkscape:transform-center-y="-29.403516"
           inkscape:transform-center-x="13.412987"
           id="g14788"
           transform="translate(240.00001,-28.000001)"
           style="fill:#f6b801;fill-opacity:1;stroke:#000000;stroke-width:1.20000017;stroke-miterlimit:4;stroke-dasharray:none">
          <path
             style="opacity:1;fill:#f6b801;fill-opacity:1;stroke:#000000;stroke-width:1.20000017;stroke-linecap:butt;stroke-linejoin:round;stroke-miterlimit:4;stroke-dasharray:none;stroke-dashoffset:0;stroke-opacity:1"
             d="m -5619.2589,1981.9813 c 0.4936,9.4163 5.5167,20.2428 16.0597,18.2537 3.3154,-10.2034 -6.783,-16.5646 -16.0597,-18.2537 z"
             id="path14790"
             inkscape:connector-curvature="0"
             sodipodi:nodetypes="ccc"
             inkscape:transform-center-x="-2.51493"
             inkscape:transform-center-y="-1.8341436" />
          <path
             style="opacity:1;fill:#f6b801;fill-opacity:1;stroke:#000000;stroke-width:1.20000017;stroke-linecap:butt;stroke-linejoin:round;stroke-miterlimit:4;stroke-dasharray:none;stroke-dashoffset:0;stroke-opacity:1"
             d="m -5619.2589,1981.9812 -6.2199,-8.0317"
             id="path14792"
             inkscape:connector-curvature="0" />
        </g>
        <g
           inkscape:transform-center-y="-29.403516"
           inkscape:transform-center-x="13.412987"
           id="g14760"
           transform="translate(240.00001,-13.750001)"
           style="fill:#f6b801;fill-opacity:1;stroke:#000000;stroke-width:1.20000017;stroke-miterlimit:4;stroke-dasharray:none">
          <path
             style="opacity:1;fill:#f6b801;fill-opacity:1;stroke:#000000;stroke-width:1.20000017;stroke-linecap:butt;stroke-linejoin:round;stroke-miterlimit:4;stroke-dasharray:none;stroke-dashoffset:0;stroke-opacity:1"
             d="m -5619.2589,1981.9813 c 0.4936,9.4163 5.5167,20.2428 16.0597,18.2537 3.3154,-10.2034 -6.783,-16.5646 -16.0597,-18.2537 z"
             id="path14762"
             inkscape:connector-curvature="0"
             sodipodi:nodetypes="ccc"
             inkscape:transform-center-x="-2.51493"
             inkscape:transform-center-y="-1.8341436" />
          <path
             style="opacity:1;fill:#f6b801;fill-opacity:1;stroke:#000000;stroke-width:1.20000017;stroke-linecap:butt;stroke-linejoin:round;stroke-miterlimit:4;stroke-dasharray:none;stroke-dashoffset:0;stroke-opacity:1"
             d="m -5619.2589,1981.9812 -6.2199,-8.0317"
             id="path14764"
             inkscape:connector-curvature="0" />
        </g>
        <g
           transform="matrix(-1,0,0,1,-10961.208,-70.810663)"
           id="g14808"
           inkscape:transform-center-x="-13.412505"
           inkscape:transform-center-y="-29.403516"
           style="fill:#f6b801;fill-opacity:1;stroke:#000000;stroke-width:1.20000017;stroke-miterlimit:4;stroke-dasharray:none">
          <path
             inkscape:transform-center-y="-1.8341436"
             inkscape:transform-center-x="-2.51493"
             sodipodi:nodetypes="ccc"
             inkscape:connector-curvature="0"
             id="path14810"
             d="m -5619.2589,1981.9813 c 0.4936,9.4163 5.5167,20.2428 16.0597,18.2537 3.3154,-10.2034 -6.783,-16.5646 -16.0597,-18.2537 z"
             style="opacity:1;fill:#f6b801;fill-opacity:1;stroke:#000000;stroke-width:1.20000017;stroke-linecap:butt;stroke-linejoin:round;stroke-miterlimit:4;stroke-dasharray:none;stroke-dashoffset:0;stroke-opacity:1" />
          <path
             inkscape:connector-curvature="0"
             id="path14812"
             d="m -5619.2589,1981.9812 -6.2199,-8.0317"
             style="opacity:1;fill:#f6b801;fill-opacity:1;stroke:#000000;stroke-width:1.20000017;stroke-linecap:butt;stroke-linejoin:round;stroke-miterlimit:4;stroke-dasharray:none;stroke-dashoffset:0;stroke-opacity:1" />
        </g>
        <g
           transform="translate(240.00001,-57.060663)"
           id="g14816"
           inkscape:transform-center-x="13.412987"
           inkscape:transform-center-y="-29.403516"
           style="fill:#f6b801;fill-opacity:1;stroke:#000000;stroke-width:1.20000017;stroke-miterlimit:4;stroke-dasharray:none">
          <path
             inkscape:transform-center-y="-1.8341436"
             inkscape:transform-center-x="-2.51493"
             sodipodi:nodetypes="ccc"
             inkscape:connector-curvature="0"
             id="path14818"
             d="m -5619.2589,1981.9813 c 0.4936,9.4163 5.5167,20.2428 16.0597,18.2537 3.3154,-10.2034 -6.783,-16.5646 -16.0597,-18.2537 z"
             style="opacity:1;fill:#f6b801;fill-opacity:1;stroke:#000000;stroke-width:1.20000017;stroke-linecap:butt;stroke-linejoin:round;stroke-miterlimit:4;stroke-dasharray:none;stroke-dashoffset:0;stroke-opacity:1" />
          <path
             inkscape:connector-curvature="0"
             id="path14820"
             d="m -5619.2589,1981.9812 -6.2199,-8.0317"
             style="opacity:1;fill:#f6b801;fill-opacity:1;stroke:#000000;stroke-width:1.20000017;stroke-linecap:butt;stroke-linejoin:round;stroke-miterlimit:4;stroke-dasharray:none;stroke-dashoffset:0;stroke-opacity:1" />
        </g>
        <g
           transform="translate(240.00001,-41.750001)"
           id="g14774"
           inkscape:transform-center-x="13.412987"
           inkscape:transform-center-y="-29.403516"
           style="fill:#f6b801;fill-opacity:1;stroke:#000000;stroke-width:1.20000017;stroke-miterlimit:4;stroke-dasharray:none">
          <path
             inkscape:transform-center-y="-1.8341436"
             inkscape:transform-center-x="-2.51493"
             sodipodi:nodetypes="ccc"
             inkscape:connector-curvature="0"
             id="path14776"
             d="m -5619.2589,1981.9813 c 0.4936,9.4163 5.5167,20.2428 16.0597,18.2537 3.3154,-10.2034 -6.783,-16.5646 -16.0597,-18.2537 z"
             style="opacity:1;fill:#f6b801;fill-opacity:1;stroke:#000000;stroke-width:1.20000017;stroke-linecap:butt;stroke-linejoin:round;stroke-miterlimit:4;stroke-dasharray:none;stroke-dashoffset:0;stroke-opacity:1" />
          <path
             inkscape:connector-curvature="0"
             id="path14778"
             d="m -5619.2589,1981.9812 -6.2199,-8.0317"
             style="opacity:1;fill:#f6b801;fill-opacity:1;stroke:#000000;stroke-width:1.20000017;stroke-linecap:butt;stroke-linejoin:round;stroke-miterlimit:4;stroke-dasharray:none;stroke-dashoffset:0;stroke-opacity:1" />
        </g>
        <g
           transform="matrix(-1,0,0,1,-10961.208,-28.000001)"
           id="g14794"
           inkscape:transform-center-x="-13.412505"
           inkscape:transform-center-y="-29.403516"
           style="fill:#f6b801;fill-opacity:1;stroke:#000000;stroke-width:1.20000017;stroke-miterlimit:4;stroke-dasharray:none">
          <path
             inkscape:transform-center-y="-1.8341436"
             inkscape:transform-center-x="-2.51493"
             sodipodi:nodetypes="ccc"
             inkscape:connector-curvature="0"
             id="path14796"
             d="m -5619.2589,1981.9813 c 0.4936,9.4163 5.5167,20.2428 16.0597,18.2537 3.3154,-10.2034 -6.783,-16.5646 -16.0597,-18.2537 z"
             style="opacity:1;fill:#f6b801;fill-opacity:1;stroke:#000000;stroke-width:1.20000017;stroke-linecap:butt;stroke-linejoin:round;stroke-miterlimit:4;stroke-dasharray:none;stroke-dashoffset:0;stroke-opacity:1" />
          <path
             inkscape:connector-curvature="0"
             id="path14798"
             d="m -5619.2589,1981.9812 -6.2199,-8.0317"
             style="opacity:1;fill:#f6b801;fill-opacity:1;stroke:#000000;stroke-width:1.20000017;stroke-linecap:butt;stroke-linejoin:round;stroke-miterlimit:4;stroke-dasharray:none;stroke-dashoffset:0;stroke-opacity:1" />
        </g>
        <path
           style="opacity:1;fill:#f6b801;fill-opacity:1;stroke:#000000;stroke-width:1.20000017;stroke-linecap:butt;stroke-linejoin:round;stroke-miterlimit:4;stroke-dasharray:none;stroke-dashoffset:0;stroke-opacity:1"
           d="m -5360.4852,1906.7012 c -5.8493,7.3957 -9.2293,18.8421 0,24.3125 9.2292,-5.4704 5.8492,-16.9168 0,-24.3125 z"
           id="path14814"
           inkscape:connector-curvature="0"
           sodipodi:nodetypes="ccc"
           inkscape:transform-center-x="-2.9364902"
           inkscape:transform-center-y="-0.018375963" />
        <g
           inkscape:transform-center-y="-29.403516"
           inkscape:transform-center-x="-13.412505"
           id="g14822"
           transform="matrix(-1,0,0,1,-10961.208,-57.060663)"
           style="fill:#f6b801;fill-opacity:1;stroke:#000000;stroke-width:1.20000017;stroke-miterlimit:4;stroke-dasharray:none">
          <path
             style="opacity:1;fill:#f6b801;fill-opacity:1;stroke:#000000;stroke-width:1.20000017;stroke-linecap:butt;stroke-linejoin:round;stroke-miterlimit:4;stroke-dasharray:none;stroke-dashoffset:0;stroke-opacity:1"
             d="m -5619.2589,1981.9813 c 0.4936,9.4163 5.5167,20.2428 16.0597,18.2537 3.3154,-10.2034 -6.783,-16.5646 -16.0597,-18.2537 z"
             id="path14824"
             inkscape:connector-curvature="0"
             sodipodi:nodetypes="ccc"
             inkscape:transform-center-x="-2.51493"
             inkscape:transform-center-y="-1.8341436" />
          <path
             style="opacity:1;fill:#f6b801;fill-opacity:1;stroke:#000000;stroke-width:1.20000017;stroke-linecap:butt;stroke-linejoin:round;stroke-miterlimit:4;stroke-dasharray:none;stroke-dashoffset:0;stroke-opacity:1"
             d="m -5619.2589,1981.9812 -6.2199,-8.0317"
             id="path14826"
             inkscape:connector-curvature="0" />
        </g>
        <g
           inkscape:transform-center-y="-29.403516"
           inkscape:transform-center-x="-13.412505"
           id="g14780"
           transform="matrix(-1,0,0,1,-10961.208,-41.750001)"
           style="fill:#f6b801;fill-opacity:1;stroke:#000000;stroke-width:1.20000017;stroke-miterlimit:4;stroke-dasharray:none">
          <path
             style="opacity:1;fill:#f6b801;fill-opacity:1;stroke:#000000;stroke-width:1.20000017;stroke-linecap:butt;stroke-linejoin:round;stroke-miterlimit:4;stroke-dasharray:none;stroke-dashoffset:0;stroke-opacity:1"
             d="m -5619.2589,1981.9813 c 0.4936,9.4163 5.5167,20.2428 16.0597,18.2537 3.3154,-10.2034 -6.783,-16.5646 -16.0597,-18.2537 z"
             id="path14782"
             inkscape:connector-curvature="0"
             sodipodi:nodetypes="ccc"
             inkscape:transform-center-x="-2.51493"
             inkscape:transform-center-y="-1.8341436" />
          <path
             style="opacity:1;fill:#f6b801;fill-opacity:1;stroke:#000000;stroke-width:1.20000017;stroke-linecap:butt;stroke-linejoin:round;stroke-miterlimit:4;stroke-dasharray:none;stroke-dashoffset:0;stroke-opacity:1"
             d="m -5619.2589,1981.9812 -6.2199,-8.0317"
             id="path14784"
             inkscape:connector-curvature="0" />
        </g>
        <g
           transform="matrix(-1,0,0,1,-10961.208,-13.750001)"
           id="g14766"
           inkscape:transform-center-x="-13.412505"
           inkscape:transform-center-y="-29.403516"
           style="fill:#f6b801;fill-opacity:1;stroke:#000000;stroke-width:1.20000017;stroke-miterlimit:4;stroke-dasharray:none">
          <path
             inkscape:transform-center-y="-1.8341436"
             inkscape:transform-center-x="-2.51493"
             sodipodi:nodetypes="ccc"
             inkscape:connector-curvature="0"
             id="path14768"
             d="m -5619.2589,1981.9813 c 0.4936,9.4163 5.5167,20.2428 16.0597,18.2537 3.3154,-10.2034 -6.783,-16.5646 -16.0597,-18.2537 z"
             style="opacity:1;fill:#f6b801;fill-opacity:1;stroke:#000000;stroke-width:1.20000017;stroke-linecap:butt;stroke-linejoin:round;stroke-miterlimit:4;stroke-dasharray:none;stroke-dashoffset:0;stroke-opacity:1" />
          <path
             inkscape:connector-curvature="0"
             id="path14770"
             d="m -5619.2589,1981.9812 -6.2199,-8.0317"
             style="opacity:1;fill:#f6b801;fill-opacity:1;stroke:#000000;stroke-width:1.20000017;stroke-linecap:butt;stroke-linejoin:round;stroke-miterlimit:4;stroke-dasharray:none;stroke-dashoffset:0;stroke-opacity:1" />
        </g>
        <path
           inkscape:transform-center-y="-0.018375963"
           inkscape:transform-center-x="-2.9364902"
           sodipodi:nodetypes="ccc"
           inkscape:connector-curvature="0"
           id="path14828"
           d="m -5360.4852,1920.4512 c -5.8493,7.3957 -9.2293,18.8421 0,24.3125 9.2292,-5.4704 5.8492,-16.9168 0,-24.3125 z"
           style="opacity:1;fill:#f6b801;fill-opacity:1;stroke:#000000;stroke-width:1.20000017;stroke-linecap:butt;stroke-linejoin:round;stroke-miterlimit:4;stroke-dasharray:none;stroke-dashoffset:0;stroke-opacity:1" />
        <path
           inkscape:transform-center-y="-0.018375963"
           inkscape:transform-center-x="-2.9364902"
           sodipodi:nodetypes="ccc"
           inkscape:connector-curvature="0"
           id="path14786"
           d="m -5360.4852,1935.762 c -5.8493,7.3957 -9.2293,18.8421 0,24.3125 9.2292,-5.4704 5.8492,-16.9168 0,-24.3125 z"
           style="opacity:1;fill:#f6b801;fill-opacity:1;stroke:#000000;stroke-width:1.20000017;stroke-linecap:butt;stroke-linejoin:round;stroke-miterlimit:4;stroke-dasharray:none;stroke-dashoffset:0;stroke-opacity:1" />
        <path
           style="opacity:1;fill:#f6b801;fill-opacity:1;stroke:#000000;stroke-width:1.20000017;stroke-linecap:butt;stroke-linejoin:round;stroke-miterlimit:4;stroke-dasharray:none;stroke-dashoffset:0;stroke-opacity:1"
           d="m -5360.4852,1949.512 c -5.8493,7.3957 -9.2293,18.8421 0,24.3125 9.2292,-5.4704 5.8492,-16.9168 0,-24.3125 z"
           id="path14800"
           inkscape:connector-curvature="0"
           sodipodi:nodetypes="ccc"
           inkscape:transform-center-x="-2.9364902"
           inkscape:transform-center-y="-0.018375963" />
        <path
           style="opacity:1;fill:#f6b801;fill-opacity:1;stroke:#000000;stroke-width:1.20000017;stroke-linecap:butt;stroke-linejoin:round;stroke-miterlimit:4;stroke-dasharray:none;stroke-dashoffset:0;stroke-opacity:1"
           d="m -5360.4852,1963.762 c -5.8493,7.3957 -9.2293,18.8421 0,24.3125 9.2292,-5.4704 5.8492,-16.9168 0,-24.3125 z"
           id="path14772"
           inkscape:connector-curvature="0"
           sodipodi:nodetypes="ccc"
           inkscape:transform-center-x="-2.9364902"
           inkscape:transform-center-y="-0.018375963" />
        <g
           id="g14750"
           inkscape:transform-center-x="13.412987"
           inkscape:transform-center-y="-29.403516"
           transform="translate(240.00001,0)"
           style="fill:#f6b801;fill-opacity:1;stroke:#000000;stroke-width:1.20000017;stroke-miterlimit:4;stroke-dasharray:none">
          <path
             inkscape:transform-center-y="-1.8341436"
             inkscape:transform-center-x="-2.51493"
             sodipodi:nodetypes="ccc"
             inkscape:connector-curvature="0"
             id="path14746"
             d="m -5619.2589,1981.9813 c 0.4936,9.4163 5.5167,20.2428 16.0597,18.2537 3.3154,-10.2034 -6.783,-16.5646 -16.0597,-18.2537 z"
             style="opacity:1;fill:#f6b801;fill-opacity:1;stroke:#000000;stroke-width:1.20000017;stroke-linecap:butt;stroke-linejoin:round;stroke-miterlimit:4;stroke-dasharray:none;stroke-dashoffset:0;stroke-opacity:1" />
          <path
             inkscape:connector-curvature="0"
             id="path14748"
             d="m -5619.2589,1981.9812 -6.2199,-8.0317"
             style="opacity:1;fill:#f6b801;fill-opacity:1;stroke:#000000;stroke-width:1.20000017;stroke-linecap:butt;stroke-linejoin:round;stroke-miterlimit:4;stroke-dasharray:none;stroke-dashoffset:0;stroke-opacity:1" />
        </g>
        <g
           inkscape:transform-center-y="-29.403516"
           inkscape:transform-center-x="-13.412505"
           id="g14754"
           transform="matrix(-1,0,0,1,-10961.208,0)"
           style="fill:#f6b801;fill-opacity:1;stroke:#000000;stroke-width:1.20000017;stroke-miterlimit:4;stroke-dasharray:none">
          <path
             style="opacity:1;fill:#f6b801;fill-opacity:1;stroke:#000000;stroke-width:1.20000017;stroke-linecap:butt;stroke-linejoin:round;stroke-miterlimit:4;stroke-dasharray:none;stroke-dashoffset:0;stroke-opacity:1"
             d="m -5619.2589,1981.9813 c 0.4936,9.4163 5.5167,20.2428 16.0597,18.2537 3.3154,-10.2034 -6.783,-16.5646 -16.0597,-18.2537 z"
             id="path14756"
             inkscape:connector-curvature="0"
             sodipodi:nodetypes="ccc"
             inkscape:transform-center-x="-2.51493"
             inkscape:transform-center-y="-1.8341436" />
          <path
             style="opacity:1;fill:#f6b801;fill-opacity:1;stroke:#000000;stroke-width:1.20000017;stroke-linecap:butt;stroke-linejoin:round;stroke-miterlimit:4;stroke-dasharray:none;stroke-dashoffset:0;stroke-opacity:1"
             d="m -5619.2589,1981.9812 -6.2199,-8.0317"
             id="path14758"
             inkscape:connector-curvature="0" />
        </g>
        <path
           inkscape:transform-center-y="-0.018375963"
           inkscape:transform-center-x="-2.9364902"
           sodipodi:nodetypes="ccc"
           inkscape:connector-curvature="0"
           id="path14744"
           d="m -5360.4852,1977.512 c -5.8493,7.3957 -9.2293,18.8421 0,24.3125 9.2292,-5.4704 5.8492,-16.9168 0,-24.3125 z"
           style="opacity:1;fill:#f6b801;fill-opacity:1;stroke:#000000;stroke-width:1.20000017;stroke-linecap:butt;stroke-linejoin:round;stroke-miterlimit:4;stroke-dasharray:none;stroke-dashoffset:0;stroke-opacity:1" />
        <path
           style="opacity:1;fill:#f6b801;fill-opacity:1;stroke:#000000;stroke-width:1.20000017;stroke-linecap:butt;stroke-linejoin:round;stroke-miterlimit:4;stroke-dasharray:none;stroke-dashoffset:0;stroke-opacity:1"
           d="m -5360.6038,1879.0654 0.1186,13.1053"
           id="path14848"
           inkscape:connector-curvature="0" />
      </g>
      <g
         transform="translate(-540.00001,0)"
         id="g14930">
        <rect
           inkscape:transform-center-y="0.089963272"
           inkscape:transform-center-x="-0.00022320148"
           y="1711.5746"
           x="-5910.1045"
           height="14.687433"
           width="2.375"
           id="rect14916"
           style="color:#000000;clip-rule:nonzero;display:inline;overflow:visible;visibility:visible;opacity:1;isolation:auto;mix-blend-mode:normal;color-interpolation:sRGB;color-interpolation-filters:linearRGB;solid-color:#000000;solid-opacity:1;fill:#f6b801;fill-opacity:1;fill-rule:nonzero;stroke:#000000;stroke-width:1.20000017;stroke-linecap:butt;stroke-linejoin:miter;stroke-miterlimit:4;stroke-dasharray:none;stroke-dashoffset:0;stroke-opacity:1;color-rendering:auto;image-rendering:auto;shape-rendering:auto;text-rendering:auto;enable-background:accumulate" />
        <path
           inkscape:connector-curvature="0"
           style="color:#000000;clip-rule:nonzero;display:inline;overflow:visible;visibility:visible;opacity:1;isolation:auto;mix-blend-mode:normal;color-interpolation:sRGB;color-interpolation-filters:linearRGB;solid-color:#000000;solid-opacity:1;fill:#f6b801;fill-opacity:1;fill-rule:nonzero;stroke:#000000;stroke-width:1.20000017;stroke-linecap:butt;stroke-linejoin:miter;stroke-miterlimit:4;stroke-dasharray:none;stroke-dashoffset:0;stroke-opacity:1;color-rendering:auto;image-rendering:auto;shape-rendering:auto;text-rendering:auto;enable-background:accumulate"
           d="m 138.11719,333.39062 a 20.131234,21.063236 0 0 0 -19.61914,21.54102 20.131234,21.063236 0 0 0 4.01562,12.11719 c -1.7317,1.1661 -4.12497,2.36539 -6.07617,2.55469 -5.066,0.4915 -12.21461,-4.36975 -41.345703,-4.24805 -18.170898,0.076 -38.285179,4.11082 -41.705078,3.76562 -3.9437,-0.398 -6.708232,-2.69458 -10.269531,-4.99218 l -11.667969,0 c 37.750496,53.10669 118.079541,40.96467 142.740231,3.67578 -0.011,0 -0.0222,-2.4e-4 -0.0332,0.01 a 20.131234,21.063236 0 0 0 4.5957,-13.75781 l 0,-0.18164 a 20.131234,21.063236 0 0 0 -20.63086,-20.48047 l -0.004,-0.004 z m 1.69531,4.00977 a 16.338972,17.095407 0 0 1 12.51562,7.76172 l -12.51562,7.22656 0,-14.98828 z m -2.375,0.006 0,14.98437 -12.5293,-7.23437 a 16.338972,17.095407 0 0 1 12.5293,-7.75 z m -13.62109,9.86133 12.43164,7.17773 -12.4336,7.17969 a 16.338972,17.095407 0 0 1 -1.52734,-6.78516 16.338972,17.095407 0 0 1 1.5293,-7.57226 z m 29.61523,0 a 16.338972,17.095407 0 0 1 1.52539,6.71094 l 0,0.14843 a 16.338972,17.095407 0 0 1 -1.5293,7.4961 l -12.42968,-7.17774 12.43359,-7.17773 z m -15.99414,9.23437 0,14.99219 a 16.338972,17.095407 0 0 1 -12.52148,-7.76367 l 12.52148,-7.22852 z m 2.375,0.002 12.52148,7.22851 a 16.338972,17.095407 0 0 1 -12.52148,7.75781 l 0,-14.98632 z"
           transform="translate(-6053.2288,1374.7525)"
           id="path14907" />
        <path
           style="opacity:1;fill:#da251c;fill-opacity:1;stroke:#000000;stroke-width:1.20000017;stroke-linecap:butt;stroke-linejoin:round;stroke-miterlimit:4;stroke-dasharray:none;stroke-dashoffset:0;stroke-opacity:1"
           d="m -6035.9456,1738.8813 c 1.015,-13.6772 13.8093,-19.6392 -1.6582,-45.0568 4.1499,15.1023 -11.9006,22.3083 1.6582,45.0568 z"
           id="path14927"
           inkscape:connector-curvature="0"
           sodipodi:nodetypes="ccc" />
      </g>
      <path
         style="opacity:1;fill:#da251c;fill-opacity:1;stroke:#000000;stroke-width:1.20000017;stroke-linecap:butt;stroke-linejoin:round;stroke-miterlimit:4;stroke-dasharray:none;stroke-dashoffset:0;stroke-opacity:1"
         d="m -6411.0829,1578.6994 c 41.9813,4.0734 83.1686,4.4136 130.2082,25.8751 -19.3649,12.1063 -86.5,15.625 -130.2083,15.625 -43.7083,0 -110.8434,-3.5187 -130.2083,-15.625 47.0396,-21.4615 88.2269,-21.8017 130.2082,-25.8751"
         id="path14996"
         inkscape:connector-curvature="0"
         sodipodi:nodetypes="ccccc"
         inkscape:transform-center-x="-65.104217"
         inkscape:transform-center-y="141.08924" />
      <path
         inkscape:transform-center-y="58.724151"
         inkscape:transform-center-x="18.576575"
         inkscape:connector-curvature="0"
         id="path14970"
         d="m -6435.8538,1518.6995 c 1,-0.25 12.3884,-3.2303 12.3884,-3.2303"
         style="opacity:1;fill:none;fill-opacity:1;stroke:#000000;stroke-width:1.20000017;stroke-linecap:butt;stroke-linejoin:round;stroke-miterlimit:4;stroke-dasharray:none;stroke-dashoffset:0;stroke-opacity:1" />
      <path
         inkscape:transform-center-y="41.020103"
         inkscape:transform-center-x="13.297725"
         inkscape:connector-curvature="0"
         id="path14972"
         d="m -6427.4788,1496.1995 6.1961,6.3616"
         style="opacity:1;fill:none;fill-opacity:1;stroke:#000000;stroke-width:1.20000017;stroke-linecap:butt;stroke-linejoin:round;stroke-miterlimit:4;stroke-dasharray:none;stroke-dashoffset:0;stroke-opacity:1" />
      <path
         inkscape:transform-center-y="29.679404"
         inkscape:transform-center-x="7.6606744e-005"
         inkscape:connector-curvature="0"
         id="path14974"
         d="m -6411.0831,1478.4495 0,19.1802"
         style="opacity:1;fill:none;fill-opacity:1;stroke:#000000;stroke-width:1.20000017;stroke-linecap:butt;stroke-linejoin:round;stroke-miterlimit:4;stroke-dasharray:none;stroke-dashoffset:0;stroke-opacity:1" />
      <path
         inkscape:transform-center-y="86.939166"
         inkscape:transform-center-x="75.894769"
         sodipodi:nodetypes="ccc"
         inkscape:connector-curvature="0"
         id="path14976"
         d="m -6560.0588,1554.1978 c 36.8841,24.2323 65.8602,9.4796 77.2741,-14.3972 32.7248,31.1959 62.5107,5.0281 68.8879,-15.8064"
         style="opacity:1;fill:none;fill-opacity:1;stroke:#000000;stroke-width:1.20000017;stroke-linecap:butt;stroke-linejoin:round;stroke-miterlimit:4;stroke-dasharray:none;stroke-dashoffset:0;stroke-opacity:1" />
      <path
         inkscape:transform-center-y="131.07228"
         inkscape:transform-center-x="128.90524"
         sodipodi:nodetypes="ssss"
         inkscape:connector-curvature="0"
         id="path14980"
         d="m -6547.7501,1586.1161 c 5.8086,-2.5867 16.7674,-5.7646 18.1196,-2.3865 1.6348,4.0843 -9.4307,11.2563 -15.1144,12.728 -5.4341,1.4071 -8.1864,-8.0342 -3.0052,-10.3415 z"
         style="opacity:1;fill:#005ba1;fill-opacity:1;stroke:#000000;stroke-width:1.20000017;stroke-linecap:butt;stroke-linejoin:round;stroke-miterlimit:4;stroke-dasharray:none;stroke-dashoffset:0;stroke-opacity:1" />
      <path
         inkscape:transform-center-y="112.53747"
         inkscape:transform-center-x="71.010911"
         transform="matrix(0.97793486,-0.20891006,0.20891005,0.97793486,0,0)"
         style="color:#000000;clip-rule:nonzero;display:inline;overflow:visible;visibility:visible;opacity:1;isolation:auto;mix-blend-mode:normal;color-interpolation:sRGB;color-interpolation-filters:linearRGB;solid-color:#000000;solid-opacity:1;fill:#da251c;fill-opacity:1;fill-rule:nonzero;stroke:#000000;stroke-width:1.20000017;stroke-linecap:butt;stroke-linejoin:miter;stroke-miterlimit:4;stroke-dasharray:none;stroke-dashoffset:0;stroke-opacity:1;color-rendering:auto;image-rendering:auto;shape-rendering:auto;text-rendering:auto;enable-background:accumulate"
         id="path14982"
         sodipodi:type="arc"
         sodipodi:cx="-6667.2422"
         sodipodi:cy="182.06096"
         sodipodi:rx="19.323786"
         sodipodi:ry="5.5862851"
         sodipodi:start="6.2644754"
         sodipodi:end="6.255836"
         sodipodi:open="true"
         d="m -6647.9218,181.95645 a 19.323786,5.5862851 0 0 1 -18.9171,5.68958 19.323786,5.5862851 0 0 1 -19.7219,-5.45643 19.323786,5.5862851 0 0 1 18.8319,-5.71315 19.323786,5.5862851 0 0 1 19.8033,5.43175" />
      <path
         inkscape:transform-center-y="112.53735"
         inkscape:transform-center-x="71.010937"
         d="m -6636.6413,181.8497 a 30.605722,11.292599 0 0 1 -29.9617,11.50141 30.605722,11.292599 0 0 1 -31.2363,-11.03009 30.605722,11.292599 0 0 1 29.8267,-11.54906 30.605722,11.292599 0 0 1 31.3652,10.98021"
         sodipodi:open="true"
         sodipodi:end="6.255836"
         sodipodi:start="6.2644754"
         sodipodi:ry="11.292599"
         sodipodi:rx="30.605722"
         sodipodi:cy="182.06097"
         sodipodi:cx="-6667.2417"
         sodipodi:type="arc"
         id="path14984"
         style="color:#000000;clip-rule:nonzero;display:inline;overflow:visible;visibility:visible;opacity:1;isolation:auto;mix-blend-mode:normal;color-interpolation:sRGB;color-interpolation-filters:linearRGB;solid-color:#000000;solid-opacity:1;fill:none;fill-opacity:1;fill-rule:nonzero;stroke:#000000;stroke-width:1.20000017;stroke-linecap:butt;stroke-linejoin:miter;stroke-miterlimit:4;stroke-dasharray:none;stroke-dashoffset:0;stroke-opacity:1;color-rendering:auto;image-rendering:auto;shape-rendering:auto;text-rendering:auto;enable-background:accumulate"
         transform="matrix(0.97793486,-0.20891004,0.20891004,0.97793486,0,0)" />
      <path
         inkscape:transform-center-y="128.35946"
         inkscape:transform-center-x="118.46167"
         sodipodi:nodetypes="cc"
         inkscape:connector-curvature="0"
         id="path14986"
         d="m -6541.166,1577.9096 c 28.0069,-7.5442 31.3898,6.3745 6.3993,19.7483"
         style="opacity:1;fill:none;fill-opacity:1;stroke:#000000;stroke-width:1.20000017;stroke-linecap:butt;stroke-linejoin:round;stroke-miterlimit:4;stroke-dasharray:none;stroke-dashoffset:0;stroke-opacity:1" />
      <path
         inkscape:transform-center-y="105.60165"
         inkscape:transform-center-x="0.056997497"
         d="m -6393.0946,1552.3916 a 21.494141,5.5862875 0 0 1 -21.0418,5.6896 21.494141,5.5862875 0 0 1 -21.937,-5.4565 21.494141,5.5862875 0 0 1 20.9471,-5.7131 21.494141,5.5862875 0 0 1 22.0274,5.4317"
         sodipodi:open="true"
         sodipodi:end="6.255836"
         sodipodi:start="6.2644754"
         sodipodi:ry="5.5862875"
         sodipodi:rx="21.494141"
         sodipodi:cy="1552.4961"
         sodipodi:cx="-6414.585"
         sodipodi:type="arc"
         id="path14988"
         style="color:#000000;clip-rule:nonzero;display:inline;overflow:visible;visibility:visible;opacity:1;isolation:auto;mix-blend-mode:normal;color-interpolation:sRGB;color-interpolation-filters:linearRGB;solid-color:#000000;solid-opacity:1;fill:#005ba1;fill-opacity:1;fill-rule:nonzero;stroke:#000000;stroke-width:1.20000017;stroke-linecap:butt;stroke-linejoin:miter;stroke-miterlimit:4;stroke-dasharray:none;stroke-dashoffset:0;stroke-opacity:1;color-rendering:auto;image-rendering:auto;shape-rendering:auto;text-rendering:auto;enable-background:accumulate"
         transform="matrix(0.9999984,-0.00178805,0.00221225,0.99999755,0,0)" />
      <path
         inkscape:transform-center-y="128.35946"
         inkscape:transform-center-x="118.46167"
         style="opacity:1;fill:none;fill-opacity:1;stroke:#000000;stroke-width:1.20000017;stroke-linecap:butt;stroke-linejoin:round;stroke-miterlimit:4;stroke-dasharray:none;stroke-dashoffset:0;stroke-opacity:1"
         d="m -6541.166,1577.9096 c 28.0069,-7.5442 31.3898,6.3745 6.3993,19.7483"
         id="path14992"
         inkscape:connector-curvature="0"
         sodipodi:nodetypes="cc" />
      <path
         inkscape:transform-center-y="120.4125"
         inkscape:transform-center-x="104.26121"
         d="m -6511.0511,1578.6924 a 4.2938519,4.2938519 0 0 1 -4.2035,4.3732 4.2938519,4.2938519 0 0 1 -4.3824,-4.194 4.2938519,4.2938519 0 0 1 4.1846,-4.3914 4.2938519,4.2938519 0 0 1 4.4004,4.1751"
         sodipodi:open="true"
         sodipodi:end="6.255836"
         sodipodi:start="6.2644754"
         sodipodi:ry="4.2938519"
         sodipodi:rx="4.2938519"
         sodipodi:cy="1578.7727"
         sodipodi:cx="-6515.3442"
         sodipodi:type="arc"
         id="path14951"
         style="color:#000000;clip-rule:nonzero;display:inline;overflow:visible;visibility:visible;opacity:1;isolation:auto;mix-blend-mode:normal;color-interpolation:sRGB;color-interpolation-filters:linearRGB;solid-color:#000000;solid-opacity:1;fill:#f7b800;fill-opacity:1;fill-rule:nonzero;stroke:#000000;stroke-width:1.20000017;stroke-linecap:butt;stroke-linejoin:miter;stroke-miterlimit:4;stroke-dasharray:none;stroke-dashoffset:0;stroke-opacity:1;color-rendering:auto;image-rendering:auto;shape-rendering:auto;text-rendering:auto;enable-background:accumulate" />
      <path
         inkscape:transform-center-y="106.05899"
         inkscape:transform-center-x="37.377422"
         style="color:#000000;clip-rule:nonzero;display:inline;overflow:visible;visibility:visible;opacity:1;isolation:auto;mix-blend-mode:normal;color-interpolation:sRGB;color-interpolation-filters:linearRGB;solid-color:#000000;solid-opacity:1;fill:#f7b800;fill-opacity:1;fill-rule:nonzero;stroke:#000000;stroke-width:1.20000017;stroke-linecap:butt;stroke-linejoin:miter;stroke-miterlimit:4;stroke-dasharray:none;stroke-dashoffset:0;stroke-opacity:1;color-rendering:auto;image-rendering:auto;shape-rendering:auto;text-rendering:auto;enable-background:accumulate"
         id="path14953"
         sodipodi:type="arc"
         sodipodi:cx="-6448.4604"
         sodipodi:cy="1564.4192"
         sodipodi:rx="4.2938519"
         sodipodi:ry="4.2938519"
         sodipodi:start="6.2644754"
         sodipodi:end="6.255836"
         sodipodi:open="true"
         d="m -6444.1673,1564.3389 a 4.2938519,4.2938519 0 0 1 -4.2035,4.3732 4.2938519,4.2938519 0 0 1 -4.3824,-4.194 4.2938519,4.2938519 0 0 1 4.1846,-4.3914 4.2938519,4.2938519 0 0 1 4.4004,4.1751" />
      <path
         transform="scale(-1,1)"
         d="m 6343.6041,1530.6667 a 5.667151,5.667151 0 0 1 -5.5478,5.7719 5.667151,5.667151 0 0 1 -5.784,-5.5354 5.667151,5.667151 0 0 1 5.523,-5.7958 5.667151,5.667151 0 0 1 5.8077,5.5103"
         sodipodi:open="true"
         sodipodi:end="6.255836"
         sodipodi:start="6.2644754"
         sodipodi:ry="5.667151"
         sodipodi:rx="5.667151"
         sodipodi:cy="1530.7727"
         sodipodi:cx="6337.938"
         sodipodi:type="arc"
         id="path15000"
         style="color:#000000;clip-rule:nonzero;display:inline;overflow:visible;visibility:visible;opacity:1;isolation:auto;mix-blend-mode:normal;color-interpolation:sRGB;color-interpolation-filters:linearRGB;solid-color:#000000;solid-opacity:1;fill:#005ba1;fill-opacity:1;fill-rule:nonzero;stroke:#000000;stroke-width:1.20000017;stroke-linecap:butt;stroke-linejoin:miter;stroke-miterlimit:4;stroke-dasharray:none;stroke-dashoffset:0;stroke-opacity:1;color-rendering:auto;image-rendering:auto;shape-rendering:auto;text-rendering:auto;enable-background:accumulate"
         inkscape:transform-center-x="-73.145029"
         inkscape:transform-center-y="72.412505" />
      <path
         transform="scale(-1,1)"
         d="m 6259.2006,1549.1505 a 8.1478758,8.1478758 0 0 1 -7.9764,8.2986 8.1478758,8.1478758 0 0 1 -8.3157,-7.9585 8.1478758,8.1478758 0 0 1 7.9405,-8.3329 8.1478758,8.1478758 0 0 1 8.35,7.9225"
         sodipodi:open="true"
         sodipodi:end="6.255836"
         sodipodi:start="6.2644754"
         sodipodi:ry="8.1478758"
         sodipodi:rx="8.1478758"
         sodipodi:cy="1549.303"
         sodipodi:cx="6251.0542"
         sodipodi:type="arc"
         id="path15002"
         style="color:#000000;clip-rule:nonzero;display:inline;overflow:visible;visibility:visible;opacity:1;isolation:auto;mix-blend-mode:normal;color-interpolation:sRGB;color-interpolation-filters:linearRGB;solid-color:#000000;solid-opacity:1;fill:#da251c;fill-opacity:1;fill-rule:nonzero;stroke:#000000;stroke-width:1.20000017;stroke-linecap:butt;stroke-linejoin:miter;stroke-miterlimit:4;stroke-dasharray:none;stroke-dashoffset:0;stroke-opacity:1;color-rendering:auto;image-rendering:auto;shape-rendering:auto;text-rendering:auto;enable-background:accumulate"
         inkscape:transform-center-x="-160.02881"
         inkscape:transform-center-y="90.942776" />
      <path
         style="color:#000000;clip-rule:nonzero;display:inline;overflow:visible;visibility:visible;opacity:1;isolation:auto;mix-blend-mode:normal;color-interpolation:sRGB;color-interpolation-filters:linearRGB;solid-color:#000000;solid-opacity:1;fill:none;fill-opacity:1;fill-rule:nonzero;stroke:#000000;stroke-width:1.20000017;stroke-linecap:butt;stroke-linejoin:miter;stroke-miterlimit:4;stroke-dasharray:none;stroke-dashoffset:0;stroke-opacity:1;color-rendering:auto;image-rendering:auto;shape-rendering:auto;text-rendering:auto;enable-background:accumulate"
         d="m -6263.1377,1549.0769 c -0.086,4.6116 2.4223,8.6691 6.1841,10.7768 m 16.7432,-15.8927 c -1.9245,-3.8982 -5.8931,-6.6229 -10.5394,-6.7399 -6.6624,-0.1678 -12.2033,5.0893 -12.3855,11.7514"
         id="path15004"
         inkscape:connector-curvature="0"
         sodipodi:nodetypes="cccsc"
         inkscape:transform-center-x="-159.40789"
         inkscape:transform-center-y="90.175244" />
      <path
         style="opacity:1;fill:none;fill-opacity:1;stroke:#000000;stroke-width:1.20000017;stroke-linecap:butt;stroke-linejoin:round;stroke-miterlimit:4;stroke-dasharray:none;stroke-dashoffset:0;stroke-opacity:1"
         d="m -6254.8747,1523.262 2.6882,14.0072"
         id="path15006"
         inkscape:connector-curvature="0"
         inkscape:transform-center-x="-157.55241"
         inkscape:transform-center-y="71.9054" />
      <path
         style="opacity:1;fill:none;fill-opacity:1;stroke:#000000;stroke-width:1.20000017;stroke-linecap:butt;stroke-linejoin:round;stroke-miterlimit:4;stroke-dasharray:none;stroke-dashoffset:0;stroke-opacity:1"
         d="m -6261.1622,1542.6748 c -0.051,0.077 -13.2125,-6.9753 -13.2125,-6.9753"
         id="path15008"
         inkscape:connector-curvature="0"
         inkscape:transform-center-x="-143.31456"
         inkscape:transform-center-y="80.827262" />
      <path
         style="opacity:1;fill:none;fill-opacity:1;stroke:#000000;stroke-width:1.20000017;stroke-linecap:butt;stroke-linejoin:round;stroke-miterlimit:4;stroke-dasharray:none;stroke-dashoffset:0;stroke-opacity:1"
         d="m -6323.825,1535.558 c -0.5303,-0.088 -8.7504,-2.8284 -8.7504,-2.8284"
         id="path15010"
         inkscape:connector-curvature="0"
         inkscape:transform-center-x="-82.882816"
         inkscape:transform-center-y="75.783599" />
      <path
         style="opacity:1;fill:none;fill-opacity:1;stroke:#000000;stroke-width:1.20000017;stroke-linecap:butt;stroke-linejoin:round;stroke-miterlimit:4;stroke-dasharray:none;stroke-dashoffset:0;stroke-opacity:1"
         d="m -6352.1976,1526.7191 8.7129,2.8915"
         id="path15012"
         inkscape:connector-curvature="0"
         inkscape:transform-center-x="-63.241868"
         inkscape:transform-center-y="69.80465" />
      <path
         style="opacity:1;fill:none;fill-opacity:1;stroke:#000000;stroke-width:1.20000017;stroke-linecap:butt;stroke-linejoin:round;stroke-miterlimit:4;stroke-dasharray:none;stroke-dashoffset:0;stroke-opacity:1"
         d="m -6336.3814,1525.3235 2.1942,-8.374"
         id="path15014"
         inkscape:connector-curvature="0"
         inkscape:transform-center-x="-75.798716"
         inkscape:transform-center-y="62.7763" />
      <path
         style="opacity:1;fill:none;fill-opacity:1;stroke:#000000;stroke-width:1.20000017;stroke-linecap:butt;stroke-linejoin:round;stroke-miterlimit:4;stroke-dasharray:none;stroke-dashoffset:0;stroke-opacity:1"
         d="m -6386.3122,1518.6995 c -1,-0.25 -12.3884,-3.2303 -12.3884,-3.2303"
         id="path15016"
         inkscape:connector-curvature="0"
         inkscape:transform-center-x="-18.576622"
         inkscape:transform-center-y="58.724151" />
      <path
         style="opacity:1;fill:none;fill-opacity:1;stroke:#000000;stroke-width:1.20000017;stroke-linecap:butt;stroke-linejoin:round;stroke-miterlimit:4;stroke-dasharray:none;stroke-dashoffset:0;stroke-opacity:1"
         d="m -6394.6872,1496.1995 -6.1961,6.3616"
         id="path15018"
         inkscape:connector-curvature="0"
         inkscape:transform-center-x="-13.297772"
         inkscape:transform-center-y="41.020103" />
      <path
         style="opacity:1;fill:none;fill-opacity:1;stroke:#000000;stroke-width:1.20000017;stroke-linecap:butt;stroke-linejoin:round;stroke-miterlimit:4;stroke-dasharray:none;stroke-dashoffset:0;stroke-opacity:1"
         d="m -6411.0829,1478.4495 0,19.1802"
         id="path15020"
         inkscape:connector-curvature="0"
         inkscape:transform-center-x="-0.00012400122"
         inkscape:transform-center-y="29.679404" />
      <path
         style="opacity:1;fill:none;fill-opacity:1;stroke:#000000;stroke-width:1.20000017;stroke-linecap:butt;stroke-linejoin:round;stroke-miterlimit:4;stroke-dasharray:none;stroke-dashoffset:0;stroke-opacity:1"
         d="m -6262.1072,1554.1978 c -36.8841,24.2323 -65.8602,9.4796 -77.2741,-14.3972 -32.7248,31.1959 -62.5107,5.0281 -68.8879,-15.8064"
         id="path15022"
         inkscape:connector-curvature="0"
         sodipodi:nodetypes="ccc"
         inkscape:transform-center-x="-75.894816"
         inkscape:transform-center-y="86.939166" />
      <path
         style="opacity:1;fill:#005ba1;fill-opacity:1;stroke:#000000;stroke-width:1.20000017;stroke-linecap:butt;stroke-linejoin:round;stroke-miterlimit:4;stroke-dasharray:none;stroke-dashoffset:0;stroke-opacity:1"
         d="m -6274.4159,1586.1161 c -5.8086,-2.5867 -16.7674,-5.7646 -18.1196,-2.3865 -1.6348,4.0843 9.4307,11.2563 15.1144,12.728 5.4341,1.4071 8.1864,-8.0342 3.0052,-10.3415 z"
         id="path15024"
         inkscape:connector-curvature="0"
         sodipodi:nodetypes="ssss"
         inkscape:transform-center-x="-128.90529"
         inkscape:transform-center-y="131.07228" />
      <path
         d="m 5891.3219,2860.636 a 19.323786,5.5862851 0 0 1 -18.9172,5.6895 19.323786,5.5862851 0 0 1 -19.7219,-5.4564 19.323786,5.5862851 0 0 1 18.832,-5.7131 19.323786,5.5862851 0 0 1 19.8032,5.4317"
         sodipodi:open="true"
         sodipodi:end="6.255836"
         sodipodi:start="6.2644754"
         sodipodi:ry="5.5862851"
         sodipodi:rx="19.323786"
         sodipodi:cy="2860.7405"
         sodipodi:cx="5872.0015"
         sodipodi:type="arc"
         id="path15026"
         style="color:#000000;clip-rule:nonzero;display:inline;overflow:visible;visibility:visible;opacity:1;isolation:auto;mix-blend-mode:normal;color-interpolation:sRGB;color-interpolation-filters:linearRGB;solid-color:#000000;solid-opacity:1;fill:#da251c;fill-opacity:1;fill-rule:nonzero;stroke:#000000;stroke-width:1.20000017;stroke-linecap:butt;stroke-linejoin:miter;stroke-miterlimit:4;stroke-dasharray:none;stroke-dashoffset:0;stroke-opacity:1;color-rendering:auto;image-rendering:auto;shape-rendering:auto;text-rendering:auto;enable-background:accumulate"
         transform="matrix(-0.97793486,-0.20891006,-0.20891005,0.97793486,0,0)"
         inkscape:transform-center-x="-71.010769"
         inkscape:transform-center-y="112.53743" />
      <path
         transform="matrix(-0.97793486,-0.20891004,-0.20891004,0.97793486,0,0)"
         style="color:#000000;clip-rule:nonzero;display:inline;overflow:visible;visibility:visible;opacity:1;isolation:auto;mix-blend-mode:normal;color-interpolation:sRGB;color-interpolation-filters:linearRGB;solid-color:#000000;solid-opacity:1;fill:none;fill-opacity:1;fill-rule:nonzero;stroke:#000000;stroke-width:1.20000017;stroke-linecap:butt;stroke-linejoin:miter;stroke-miterlimit:4;stroke-dasharray:none;stroke-dashoffset:0;stroke-opacity:1;color-rendering:auto;image-rendering:auto;shape-rendering:auto;text-rendering:auto;enable-background:accumulate"
         id="path15028"
         sodipodi:type="arc"
         sodipodi:cx="5872.0015"
         sodipodi:cy="2860.7402"
         sodipodi:rx="30.605722"
         sodipodi:ry="11.292599"
         sodipodi:start="6.2644754"
         sodipodi:end="6.255836"
         sodipodi:open="true"
         d="m 5902.6018,2860.529 a 30.605722,11.292599 0 0 1 -29.9616,11.5014 30.605722,11.292599 0 0 1 -31.2363,-11.0301 30.605722,11.292599 0 0 1 29.8267,-11.5491 30.605722,11.292599 0 0 1 31.3651,10.9802"
         inkscape:transform-center-x="-71.01087"
         inkscape:transform-center-y="112.5373" />
      <path
         style="opacity:1;fill:none;fill-opacity:1;stroke:#000000;stroke-width:1.20000017;stroke-linecap:butt;stroke-linejoin:round;stroke-miterlimit:4;stroke-dasharray:none;stroke-dashoffset:0;stroke-opacity:1"
         d="m -6281,1577.9096 c -28.0069,-7.5442 -31.3898,6.3745 -6.3993,19.7483"
         id="path15030"
         inkscape:connector-curvature="0"
         sodipodi:nodetypes="cc"
         inkscape:transform-center-x="-118.46172"
         inkscape:transform-center-y="128.35946" />
      <path
         transform="matrix(-0.9999984,-0.00178805,-0.00221225,0.99999755,0,0)"
         style="color:#000000;clip-rule:nonzero;display:inline;overflow:visible;visibility:visible;opacity:1;isolation:auto;mix-blend-mode:normal;color-interpolation:sRGB;color-interpolation-filters:linearRGB;solid-color:#000000;solid-opacity:1;fill:#005ba1;fill-opacity:1;fill-rule:nonzero;stroke:#000000;stroke-width:1.20000017;stroke-linecap:butt;stroke-linejoin:miter;stroke-miterlimit:4;stroke-dasharray:none;stroke-dashoffset:0;stroke-opacity:1;color-rendering:auto;image-rendering:auto;shape-rendering:auto;text-rendering:auto;enable-background:accumulate"
         id="path15032"
         sodipodi:type="arc"
         sodipodi:cx="6407.5508"
         sodipodi:cy="1575.4227"
         sodipodi:rx="21.494141"
         sodipodi:ry="5.5862875"
         sodipodi:start="6.2644754"
         sodipodi:end="6.255836"
         sodipodi:open="true"
         d="m 6429.0412,1575.3182 a 21.494141,5.5862875 0 0 1 -21.0419,5.6896 21.494141,5.5862875 0 0 1 -21.937,-5.4564 21.494141,5.5862875 0 0 1 20.9471,-5.7132 21.494141,5.5862875 0 0 1 22.0275,5.4318"
         inkscape:transform-center-x="-0.057072604"
         inkscape:transform-center-y="105.60169" />
      <path
         sodipodi:nodetypes="cc"
         inkscape:connector-curvature="0"
         id="path15034"
         d="m -6281,1577.9096 c -28.0069,-7.5442 -31.3898,6.3745 -6.3993,19.7483"
         style="opacity:1;fill:none;fill-opacity:1;stroke:#000000;stroke-width:1.20000017;stroke-linecap:butt;stroke-linejoin:round;stroke-miterlimit:4;stroke-dasharray:none;stroke-dashoffset:0;stroke-opacity:1"
         inkscape:transform-center-x="-118.46172"
         inkscape:transform-center-y="128.35946" />
      <path
         style="opacity:1;fill:#f7b800;fill-opacity:1;stroke:#000000;stroke-width:1.20000017;stroke-linecap:butt;stroke-linejoin:round;stroke-miterlimit:4;stroke-dasharray:none;stroke-dashoffset:0;stroke-opacity:1"
         d="m -6411.0829,1581.9495 c 47.1746,0 87.7868,6.9768 128.3957,24.25 2.6931,1.1455 6.6105,-3.9009 2.2929,-5.7072 -42.7019,-17.8645 -85.6351,-25.0428 -130.6887,-25.0428 -45.0536,0 -87.9868,7.1783 -130.6887,25.0428 -4.3176,1.8063 -0.4002,6.8527 2.2929,5.7072 40.6089,-17.2732 81.2211,-24.25 128.3957,-24.25"
         id="path15036"
         inkscape:connector-curvature="0"
         sodipodi:nodetypes="csscssc"
         inkscape:transform-center-x="-66.306969"
         inkscape:transform-center-y="132.54796" />
      <path
         sodipodi:nodetypes="csscssc"
         inkscape:connector-curvature="0"
         id="path15038"
         d="m -6411.0903,1552.4495 c 50.4563,0 93.827,11.1454 137.3275,28.25 3.5876,1.4107 6.5372,-4.0926 2.2364,-5.7955 -45.543,-18.0321 -91.3763,-28.9545 -139.5566,-28.9545 -48.1803,0 -94.0136,10.9224 -139.5566,28.9545 -4.3008,1.7029 -1.3512,7.2062 2.2364,5.7955 43.5005,-17.1046 86.8712,-28.25 137.3275,-28.25"
         style="opacity:1;fill:#f7b800;fill-opacity:1;stroke:#000000;stroke-width:1.20000017;stroke-linecap:butt;stroke-linejoin:round;stroke-miterlimit:4;stroke-dasharray:none;stroke-dashoffset:0;stroke-opacity:1"
         inkscape:transform-center-x="-70.842175"
         inkscape:transform-center-y="105.07873" />
      <path
         transform="scale(-1,1)"
         style="color:#000000;clip-rule:nonzero;display:inline;overflow:visible;visibility:visible;opacity:1;isolation:auto;mix-blend-mode:normal;color-interpolation:sRGB;color-interpolation-filters:linearRGB;solid-color:#000000;solid-opacity:1;fill:#f7b800;fill-opacity:1;fill-rule:nonzero;stroke:#000000;stroke-width:1.20000017;stroke-linecap:butt;stroke-linejoin:miter;stroke-miterlimit:4;stroke-dasharray:none;stroke-dashoffset:0;stroke-opacity:1;color-rendering:auto;image-rendering:auto;shape-rendering:auto;text-rendering:auto;enable-background:accumulate"
         id="path15040"
         sodipodi:type="arc"
         sodipodi:cx="6306.8218"
         sodipodi:cy="1578.7727"
         sodipodi:rx="4.2938519"
         sodipodi:ry="4.2938519"
         sodipodi:start="6.2644754"
         sodipodi:end="6.255836"
         sodipodi:open="true"
         d="m 6311.1149,1578.6924 a 4.2938519,4.2938519 0 0 1 -4.2035,4.3732 4.2938519,4.2938519 0 0 1 -4.3823,-4.194 4.2938519,4.2938519 0 0 1 4.1845,-4.3914 4.2938519,4.2938519 0 0 1 4.4004,4.1751"
         inkscape:transform-center-x="-104.26124"
         inkscape:transform-center-y="120.4125" />
      <path
         d="m -6402.7886,1510.797 a 8.1478758,8.1478758 0 0 1 -7.9764,8.2986 8.1478758,8.1478758 0 0 1 -8.3158,-7.9585 8.1478758,8.1478758 0 0 1 7.9405,-8.3329 8.1478758,8.1478758 0 0 1 8.3501,7.9225"
         sodipodi:open="true"
         sodipodi:end="6.255836"
         sodipodi:start="6.2644754"
         sodipodi:ry="8.1478758"
         sodipodi:rx="8.1478758"
         sodipodi:cy="1510.9495"
         sodipodi:cx="-6410.9351"
         sodipodi:type="arc"
         id="path14943"
         style="color:#000000;clip-rule:nonzero;display:inline;overflow:visible;visibility:visible;opacity:1;isolation:auto;mix-blend-mode:normal;color-interpolation:sRGB;color-interpolation-filters:linearRGB;solid-color:#000000;solid-opacity:1;fill:#da251c;fill-opacity:1;fill-rule:nonzero;stroke:#000000;stroke-width:1.20000017;stroke-linecap:butt;stroke-linejoin:miter;stroke-miterlimit:4;stroke-dasharray:none;stroke-dashoffset:0;stroke-opacity:1;color-rendering:auto;image-rendering:auto;shape-rendering:auto;text-rendering:auto;enable-background:accumulate" />
      <path
         style="color:#000000;clip-rule:nonzero;display:inline;overflow:visible;visibility:visible;opacity:1;isolation:auto;mix-blend-mode:normal;color-interpolation:sRGB;color-interpolation-filters:linearRGB;solid-color:#000000;solid-opacity:1;fill:none;fill-opacity:1;fill-rule:nonzero;stroke:#000000;stroke-width:1.20000017;stroke-linecap:butt;stroke-linejoin:miter;stroke-miterlimit:4;stroke-dasharray:none;stroke-dashoffset:0;stroke-opacity:1;color-rendering:auto;image-rendering:auto;shape-rendering:auto;text-rendering:auto;enable-background:accumulate"
         id="path14945"
         sodipodi:type="arc"
         sodipodi:cx="-6410.9351"
         sodipodi:cy="1510.9495"
         sodipodi:rx="13.32058"
         sodipodi:ry="13.32058"
         sodipodi:start="6.2644754"
         sodipodi:end="6.255836"
         sodipodi:open="true"
         d="m -6397.6168,1510.7003 a 13.32058,13.32058 0 0 1 -13.0403,13.5668 13.32058,13.32058 0 0 1 -13.595,-13.0109 13.32058,13.32058 0 0 1 12.9815,-13.6231 13.32058,13.32058 0 0 1 13.6511,12.9521" />
      <path
         transform="matrix(0.9999984,-0.00178804,0.00221224,0.99999755,0,0)"
         style="color:#000000;clip-rule:nonzero;display:inline;overflow:visible;visibility:visible;opacity:1;isolation:auto;mix-blend-mode:normal;color-interpolation:sRGB;color-interpolation-filters:linearRGB;solid-color:#000000;solid-opacity:1;fill:none;fill-opacity:1;fill-rule:nonzero;stroke:#000000;stroke-width:1.20000017;stroke-linecap:butt;stroke-linejoin:miter;stroke-miterlimit:4;stroke-dasharray:none;stroke-dashoffset:0;stroke-opacity:1;color-rendering:auto;image-rendering:auto;shape-rendering:auto;text-rendering:auto;enable-background:accumulate"
         id="path14990"
         sodipodi:type="arc"
         sodipodi:cx="-6414.585"
         sodipodi:cy="1552.4961"
         sodipodi:rx="34.043213"
         sodipodi:ry="11.292603"
         sodipodi:start="6.2644754"
         sodipodi:end="6.255836"
         sodipodi:open="true"
         d="m -6380.5477,1552.2848 a 34.043213,11.292603 0 0 1 -33.3268,11.5014 34.043213,11.292603 0 0 1 -34.7446,-11.0301 34.043213,11.292603 0 0 1 33.1767,-11.549 34.043213,11.292603 0 0 1 34.8879,10.9802" />
      <path
         transform="scale(-1,1)"
         d="m 6377.9987,1564.3389 a 4.2938519,4.2938519 0 0 1 -4.2035,4.3732 4.2938519,4.2938519 0 0 1 -4.3823,-4.194 4.2938519,4.2938519 0 0 1 4.1845,-4.3914 4.2938519,4.2938519 0 0 1 4.4004,4.1751"
         sodipodi:open="true"
         sodipodi:end="6.255836"
         sodipodi:start="6.2644754"
         sodipodi:ry="4.2938519"
         sodipodi:rx="4.2938519"
         sodipodi:cy="1564.4192"
         sodipodi:cx="6373.7056"
         sodipodi:type="arc"
         id="path15042"
         style="color:#000000;clip-rule:nonzero;display:inline;overflow:visible;visibility:visible;opacity:1;isolation:auto;mix-blend-mode:normal;color-interpolation:sRGB;color-interpolation-filters:linearRGB;solid-color:#000000;solid-opacity:1;fill:#f7b800;fill-opacity:1;fill-rule:nonzero;stroke:#000000;stroke-width:1.20000017;stroke-linecap:butt;stroke-linejoin:miter;stroke-miterlimit:4;stroke-dasharray:none;stroke-dashoffset:0;stroke-opacity:1;color-rendering:auto;image-rendering:auto;shape-rendering:auto;text-rendering:auto;enable-background:accumulate"
         inkscape:transform-center-x="-37.377454"
         inkscape:transform-center-y="106.05899" />
      <path
         inkscape:transform-center-y="90.942776"
         inkscape:transform-center-x="160.02878"
         style="color:#000000;clip-rule:nonzero;display:inline;overflow:visible;visibility:visible;opacity:1;isolation:auto;mix-blend-mode:normal;color-interpolation:sRGB;color-interpolation-filters:linearRGB;solid-color:#000000;solid-opacity:1;fill:#da251c;fill-opacity:1;fill-rule:nonzero;stroke:#000000;stroke-width:1.20000017;stroke-linecap:butt;stroke-linejoin:miter;stroke-miterlimit:4;stroke-dasharray:none;stroke-dashoffset:0;stroke-opacity:1;color-rendering:auto;image-rendering:auto;shape-rendering:auto;text-rendering:auto;enable-background:accumulate"
         id="path14949"
         sodipodi:type="arc"
         sodipodi:cx="-6571.1118"
         sodipodi:cy="1549.303"
         sodipodi:rx="8.1478758"
         sodipodi:ry="8.1478758"
         sodipodi:start="6.2644754"
         sodipodi:end="6.255836"
         sodipodi:open="true"
         d="m -6562.9654,1549.1505 a 8.1478758,8.1478758 0 0 1 -7.9764,8.2986 8.1478758,8.1478758 0 0 1 -8.3157,-7.9585 8.1478758,8.1478758 0 0 1 7.9405,-8.3329 8.1478758,8.1478758 0 0 1 8.35,7.9225" />
      <path
         inkscape:transform-center-y="90.175244"
         inkscape:transform-center-x="159.40784"
         sodipodi:nodetypes="cccsc"
         inkscape:connector-curvature="0"
         id="path14957"
         d="m -6559.0283,1549.0769 c 0.086,4.6116 -2.4223,8.6691 -6.1841,10.7768 m -16.7432,-15.8927 c 1.9245,-3.8982 5.8931,-6.6229 10.5394,-6.7399 6.6624,-0.1678 12.2033,5.0893 12.3855,11.7514"
         style="color:#000000;clip-rule:nonzero;display:inline;overflow:visible;visibility:visible;opacity:1;isolation:auto;mix-blend-mode:normal;color-interpolation:sRGB;color-interpolation-filters:linearRGB;solid-color:#000000;solid-opacity:1;fill:none;fill-opacity:1;fill-rule:nonzero;stroke:#000000;stroke-width:1.20000017;stroke-linecap:butt;stroke-linejoin:miter;stroke-miterlimit:4;stroke-dasharray:none;stroke-dashoffset:0;stroke-opacity:1;color-rendering:auto;image-rendering:auto;shape-rendering:auto;text-rendering:auto;enable-background:accumulate" />
      <path
         inkscape:transform-center-y="71.9054"
         inkscape:transform-center-x="157.55236"
         inkscape:connector-curvature="0"
         id="path14960"
         d="m -6567.2913,1523.262 -2.6882,14.0072"
         style="opacity:1;fill:none;fill-opacity:1;stroke:#000000;stroke-width:1.20000017;stroke-linecap:butt;stroke-linejoin:round;stroke-miterlimit:4;stroke-dasharray:none;stroke-dashoffset:0;stroke-opacity:1" />
      <path
         inkscape:transform-center-y="80.827262"
         inkscape:transform-center-x="143.31451"
         inkscape:connector-curvature="0"
         id="path14962"
         d="m -6561.0038,1542.6748 c 0.051,0.077 13.2125,-6.9753 13.2125,-6.9753"
         style="opacity:1;fill:none;fill-opacity:1;stroke:#000000;stroke-width:1.20000017;stroke-linecap:butt;stroke-linejoin:round;stroke-miterlimit:4;stroke-dasharray:none;stroke-dashoffset:0;stroke-opacity:1" />
      <path
         inkscape:transform-center-y="72.412505"
         inkscape:transform-center-x="73.144997"
         style="color:#000000;clip-rule:nonzero;display:inline;overflow:visible;visibility:visible;opacity:1;isolation:auto;mix-blend-mode:normal;color-interpolation:sRGB;color-interpolation-filters:linearRGB;solid-color:#000000;solid-opacity:1;fill:#005ba1;fill-opacity:1;fill-rule:nonzero;stroke:#000000;stroke-width:1.20000017;stroke-linecap:butt;stroke-linejoin:miter;stroke-miterlimit:4;stroke-dasharray:none;stroke-dashoffset:0;stroke-opacity:1;color-rendering:auto;image-rendering:auto;shape-rendering:auto;text-rendering:auto;enable-background:accumulate"
         id="path14947"
         sodipodi:type="arc"
         sodipodi:cx="-6484.228"
         sodipodi:cy="1530.7727"
         sodipodi:rx="5.667151"
         sodipodi:ry="5.667151"
         sodipodi:start="6.2644754"
         sodipodi:end="6.255836"
         sodipodi:open="true"
         d="m -6478.5619,1530.6667 a 5.667151,5.667151 0 0 1 -5.5479,5.7719 5.667151,5.667151 0 0 1 -5.7839,-5.5354 5.667151,5.667151 0 0 1 5.5229,-5.7958 5.667151,5.667151 0 0 1 5.8078,5.5103" />
      <path
         inkscape:transform-center-y="75.783599"
         inkscape:transform-center-x="82.882769"
         inkscape:connector-curvature="0"
         id="path14964"
         d="m -6498.341,1535.558 c 0.5303,-0.088 8.7504,-2.8284 8.7504,-2.8284"
         style="opacity:1;fill:none;fill-opacity:1;stroke:#000000;stroke-width:1.20000017;stroke-linecap:butt;stroke-linejoin:round;stroke-miterlimit:4;stroke-dasharray:none;stroke-dashoffset:0;stroke-opacity:1" />
      <path
         inkscape:transform-center-y="69.80465"
         inkscape:transform-center-x="63.241821"
         inkscape:connector-curvature="0"
         id="path14966"
         d="m -6469.9684,1526.7191 -8.7129,2.8915"
         style="opacity:1;fill:none;fill-opacity:1;stroke:#000000;stroke-width:1.20000017;stroke-linecap:butt;stroke-linejoin:round;stroke-miterlimit:4;stroke-dasharray:none;stroke-dashoffset:0;stroke-opacity:1" />
      <path
         inkscape:transform-center-y="62.7763"
         inkscape:transform-center-x="75.798669"
         inkscape:connector-curvature="0"
         id="path14968"
         d="m -6485.7846,1525.3235 -2.1942,-8.374"
         style="opacity:1;fill:none;fill-opacity:1;stroke:#000000;stroke-width:1.20000017;stroke-linecap:butt;stroke-linejoin:round;stroke-miterlimit:4;stroke-dasharray:none;stroke-dashoffset:0;stroke-opacity:1" />
    </g>
  </g>
</svg>
